%YAML 1.1
%TAG !u! tag:unity3d.com,2011:
--- !u!1001 &3441941440674370973
PrefabInstance:
  m_ObjectHideFlags: 0
  serializedVersion: 2
  m_Modification:
    m_TransformParent: {fileID: 0}
    m_Modifications:
    - target: {fileID: 3820442642410162663, guid: a3245d49e70a1ed4bb7648e88fcf7888,
        type: 3}
      propertyPath: m_LocalPosition.x
      value: 0
      objectReference: {fileID: 0}
    - target: {fileID: 3820442642410162663, guid: a3245d49e70a1ed4bb7648e88fcf7888,
        type: 3}
      propertyPath: m_LocalPosition.y
      value: 0
      objectReference: {fileID: 0}
    - target: {fileID: 3820442642410162663, guid: a3245d49e70a1ed4bb7648e88fcf7888,
        type: 3}
      propertyPath: m_LocalPosition.z
      value: 0
      objectReference: {fileID: 0}
    - target: {fileID: 3820442642410162663, guid: a3245d49e70a1ed4bb7648e88fcf7888,
        type: 3}
      propertyPath: m_LocalRotation.x
      value: 0
      objectReference: {fileID: 0}
    - target: {fileID: 3820442642410162663, guid: a3245d49e70a1ed4bb7648e88fcf7888,
        type: 3}
      propertyPath: m_LocalRotation.y
      value: 0
      objectReference: {fileID: 0}
    - target: {fileID: 3820442642410162663, guid: a3245d49e70a1ed4bb7648e88fcf7888,
        type: 3}
      propertyPath: m_LocalRotation.z
      value: 0
      objectReference: {fileID: 0}
    - target: {fileID: 3820442642410162663, guid: a3245d49e70a1ed4bb7648e88fcf7888,
        type: 3}
      propertyPath: m_LocalRotation.w
      value: 1
      objectReference: {fileID: 0}
    - target: {fileID: 3820442642410162663, guid: a3245d49e70a1ed4bb7648e88fcf7888,
        type: 3}
      propertyPath: m_RootOrder
      value: 0
      objectReference: {fileID: 0}
    - target: {fileID: 3820442642410162663, guid: a3245d49e70a1ed4bb7648e88fcf7888,
        type: 3}
      propertyPath: m_LocalEulerAnglesHint.x
      value: 0
      objectReference: {fileID: 0}
    - target: {fileID: 3820442642410162663, guid: a3245d49e70a1ed4bb7648e88fcf7888,
        type: 3}
      propertyPath: m_LocalEulerAnglesHint.y
      value: 0
      objectReference: {fileID: 0}
    - target: {fileID: 3820442642410162663, guid: a3245d49e70a1ed4bb7648e88fcf7888,
        type: 3}
      propertyPath: m_LocalEulerAnglesHint.z
      value: 0
      objectReference: {fileID: 0}
    - target: {fileID: 4489843619731903325, guid: a3245d49e70a1ed4bb7648e88fcf7888,
        type: 3}
      propertyPath: m_Name
      value: NoteBook Variant1
      objectReference: {fileID: 0}
    - target: {fileID: 8921797629651519873, guid: a3245d49e70a1ed4bb7648e88fcf7888,
        type: 3}
      propertyPath: m_Materials.Array.data[0]
      value: 
      objectReference: {fileID: 2100000, guid: 99f554a181cbb684aa3190885af0cfa6, type: 2}
    m_RemovedComponents: []
  m_SourcePrefab: {fileID: 100100000, guid: a3245d49e70a1ed4bb7648e88fcf7888, type: 3}
