%YAML 1.1
%TAG !u! tag:unity3d.com,2011:
--- !u!64 &2921796553560659710
MeshCollider:
  m_ObjectHideFlags: 0
  m_CorrespondingSourceObject: {fileID: 0}
  m_PrefabInstance: {fileID: 0}
  m_PrefabAsset: {fileID: 0}
  m_GameObject: {fileID: 7862650410059693714}
  m_Material: {fileID: 0}
  m_IsTrigger: 0
  m_Enabled: 1
  serializedVersion: 4
  m_Convex: 0
  m_CookingOptions: 30
  m_Mesh: {fileID: -4552961407312753236, guid: e6b226cd4c3db624989acb339a407a55, type: 3}
--- !u!1 &8438183299726051066
GameObject:
  m_ObjectHideFlags: 0
  m_CorrespondingSourceObject: {fileID: 0}
  m_PrefabInstance: {fileID: 0}
  m_PrefabAsset: {fileID: 0}
  serializedVersion: 6
  m_Component:
  - component: {fileID: 6062491002866006355}
  m_Layer: 0
  m_Name: shelf1
  m_TagString: Untagged
  m_Icon: {fileID: 0}
  m_NavMeshLayer: 0
  m_StaticEditorFlags: 0
  m_IsActive: 1
--- !u!4 &6062491002866006355
Transform:
  m_ObjectHideFlags: 0
  m_CorrespondingSourceObject: {fileID: 0}
  m_PrefabInstance: {fileID: 0}
  m_PrefabAsset: {fileID: 0}
  m_GameObject: {fileID: 8438183299726051066}
  m_LocalRotation: {x: 0, y: 0, z: 0, w: 1}
  m_LocalPosition: {x: 0, y: 0, z: 0}
  m_LocalScale: {x: 1, y: 1, z: 1}
  m_Children:
  - {fileID: 7374202726892151848}
  m_Father: {fileID: 0}
  m_RootOrder: 0
  m_LocalEulerAnglesHint: {x: 0, y: 0, z: 0}
--- !u!1001 &7051747726985446339
PrefabInstance:
  m_ObjectHideFlags: 0
  serializedVersion: 2
  m_Modification:
    m_TransformParent: {fileID: 6062491002866006355}
    m_Modifications:
    - target: {fileID: -8679921383154817045, guid: e6b226cd4c3db624989acb339a407a55,
        type: 3}
      propertyPath: m_LocalPosition.x
      value: 0
      objectReference: {fileID: 0}
    - target: {fileID: -8679921383154817045, guid: e6b226cd4c3db624989acb339a407a55,
        type: 3}
      propertyPath: m_LocalPosition.y
      value: 0
      objectReference: {fileID: 0}
    - target: {fileID: -8679921383154817045, guid: e6b226cd4c3db624989acb339a407a55,
        type: 3}
      propertyPath: m_LocalPosition.z
      value: 0
      objectReference: {fileID: 0}
    - target: {fileID: -8679921383154817045, guid: e6b226cd4c3db624989acb339a407a55,
        type: 3}
      propertyPath: m_LocalRotation.x
      value: -0
      objectReference: {fileID: 0}
    - target: {fileID: -8679921383154817045, guid: e6b226cd4c3db624989acb339a407a55,
        type: 3}
      propertyPath: m_LocalRotation.y
      value: -0
      objectReference: {fileID: 0}
    - target: {fileID: -8679921383154817045, guid: e6b226cd4c3db624989acb339a407a55,
        type: 3}
      propertyPath: m_LocalRotation.z
      value: -0
      objectReference: {fileID: 0}
    - target: {fileID: -8679921383154817045, guid: e6b226cd4c3db624989acb339a407a55,
        type: 3}
      propertyPath: m_LocalRotation.w
      value: 1
      objectReference: {fileID: 0}
    - target: {fileID: -8679921383154817045, guid: e6b226cd4c3db624989acb339a407a55,
        type: 3}
      propertyPath: m_RootOrder
      value: 0
      objectReference: {fileID: 0}
    - target: {fileID: -8679921383154817045, guid: e6b226cd4c3db624989acb339a407a55,
        type: 3}
      propertyPath: m_LocalEulerAnglesHint.x
      value: 0
      objectReference: {fileID: 0}
    - target: {fileID: -8679921383154817045, guid: e6b226cd4c3db624989acb339a407a55,
        type: 3}
      propertyPath: m_LocalEulerAnglesHint.y
      value: 0
      objectReference: {fileID: 0}
    - target: {fileID: -8679921383154817045, guid: e6b226cd4c3db624989acb339a407a55,
        type: 3}
      propertyPath: m_LocalEulerAnglesHint.z
      value: 0
      objectReference: {fileID: 0}
    - target: {fileID: -8679921383154817045, guid: e6b226cd4c3db624989acb339a407a55,
        type: 3}
      propertyPath: m_LocalScale.x
      value: 1
      objectReference: {fileID: 0}
    - target: {fileID: -8679921383154817045, guid: e6b226cd4c3db624989acb339a407a55,
        type: 3}
      propertyPath: m_LocalScale.y
      value: 1
      objectReference: {fileID: 0}
    - target: {fileID: 919132149155446097, guid: e6b226cd4c3db624989acb339a407a55,
        type: 3}
      propertyPath: m_Name
      value: Shelf1
      objectReference: {fileID: 0}
    m_RemovedComponents: []
  m_SourcePrefab: {fileID: 100100000, guid: e6b226cd4c3db624989acb339a407a55, type: 3}
--- !u!1 &7862650410059693714 stripped
GameObject:
  m_CorrespondingSourceObject: {fileID: 919132149155446097, guid: e6b226cd4c3db624989acb339a407a55,
    type: 3}
  m_PrefabInstance: {fileID: 7051747726985446339}
  m_PrefabAsset: {fileID: 0}
--- !u!4 &7374202726892151848 stripped
Transform:
  m_CorrespondingSourceObject: {fileID: -8679921383154817045, guid: e6b226cd4c3db624989acb339a407a55,
    type: 3}
  m_PrefabInstance: {fileID: 7051747726985446339}
  m_PrefabAsset: {fileID: 0}
