%YAML 1.1
%TAG !u! tag:unity3d.com,2011:
--- !u!64 &7240979574450198502
MeshCollider:
  m_ObjectHideFlags: 0
  m_CorrespondingSourceObject: {fileID: 0}
  m_PrefabInstance: {fileID: 0}
  m_PrefabAsset: {fileID: 0}
  m_GameObject: {fileID: 8935082045586364861}
  m_Material: {fileID: 0}
  m_IsTrigger: 0
  m_Enabled: 1
  serializedVersion: 4
  m_Convex: 1
  m_CookingOptions: 30
  m_Mesh: {fileID: -5692523698505885010, guid: 4966a32e4b247dd49ab9b1dff5415ab9, type: 3}
--- !u!1001 &7694439417033628782
PrefabInstance:
  m_ObjectHideFlags: 0
  serializedVersion: 2
  m_Modification:
    m_TransformParent: {fileID: 0}
    m_Modifications:
    - target: {fileID: 247130475289630181, guid: 7e8ab9f2ce99ac442a350a3f7dff2fd7,
        type: 3}
      propertyPath: m_LocalPosition.y
      value: 0.532
      objectReference: {fileID: 0}
    - target: {fileID: 247130475289630181, guid: 7e8ab9f2ce99ac442a350a3f7dff2fd7,
        type: 3}
      propertyPath: m_LocalPosition.z
      value: 0.034
      objectReference: {fileID: 0}
    - target: {fileID: 247130475289630181, guid: 7e8ab9f2ce99ac442a350a3f7dff2fd7,
        type: 3}
      propertyPath: m_LocalRotation.y
      value: 0.7015605
      objectReference: {fileID: 0}
    - target: {fileID: 247130475289630181, guid: 7e8ab9f2ce99ac442a350a3f7dff2fd7,
        type: 3}
      propertyPath: m_LocalRotation.z
      value: 0.12499261
      objectReference: {fileID: 0}
    - target: {fileID: 247130475289630181, guid: 7e8ab9f2ce99ac442a350a3f7dff2fd7,
        type: 3}
      propertyPath: m_LocalRotation.x
      value: -0.690686
      objectReference: {fileID: 0}
    - target: {fileID: 247130475289630181, guid: 7e8ab9f2ce99ac442a350a3f7dff2fd7,
        type: 3}
      propertyPath: m_LocalRotation.w
      value: -0.12305516
      objectReference: {fileID: 0}
    - target: {fileID: 3659798304053229829, guid: 7e8ab9f2ce99ac442a350a3f7dff2fd7,
        type: 3}
      propertyPath: m_LocalPosition.y
      value: 0.532
      objectReference: {fileID: 0}
    - target: {fileID: 3659798304053229829, guid: 7e8ab9f2ce99ac442a350a3f7dff2fd7,
        type: 3}
      propertyPath: m_LocalPosition.z
      value: -0.034
      objectReference: {fileID: 0}
    - target: {fileID: 3659798304053229829, guid: 7e8ab9f2ce99ac442a350a3f7dff2fd7,
        type: 3}
      propertyPath: m_LocalRotation.w
      value: 0.70156056
      objectReference: {fileID: 0}
    - target: {fileID: 3659798304053229829, guid: 7e8ab9f2ce99ac442a350a3f7dff2fd7,
        type: 3}
      propertyPath: m_LocalRotation.x
      value: -0.1249926
      objectReference: {fileID: 0}
    - target: {fileID: 3659798304053229829, guid: 7e8ab9f2ce99ac442a350a3f7dff2fd7,
        type: 3}
      propertyPath: m_LocalRotation.y
      value: -0.12305516
      objectReference: {fileID: 0}
    - target: {fileID: 3659798304053229829, guid: 7e8ab9f2ce99ac442a350a3f7dff2fd7,
        type: 3}
      propertyPath: m_LocalRotation.z
      value: 0.690686
      objectReference: {fileID: 0}
    - target: {fileID: 3659798304053229829, guid: 7e8ab9f2ce99ac442a350a3f7dff2fd7,
        type: 3}
      propertyPath: m_LocalEulerAnglesHint.z
      value: 89.16
      objectReference: {fileID: 0}
    - target: {fileID: 3659798304053229829, guid: 7e8ab9f2ce99ac442a350a3f7dff2fd7,
        type: 3}
      propertyPath: m_LocalEulerAnglesHint.y
      value: -20.202002
      objectReference: {fileID: 0}
    - target: {fileID: 3659798304053229829, guid: 7e8ab9f2ce99ac442a350a3f7dff2fd7,
        type: 3}
      propertyPath: m_LocalEulerAnglesHint.x
      value: -0.30900002
      objectReference: {fileID: 0}
    - target: {fileID: 3792578575685126666, guid: 7e8ab9f2ce99ac442a350a3f7dff2fd7,
        type: 3}
      propertyPath: m_LocalPosition.z
      value: 0
      objectReference: {fileID: 0}
    - target: {fileID: 8086614173453513277, guid: 7e8ab9f2ce99ac442a350a3f7dff2fd7,
        type: 3}
      propertyPath: m_LocalPosition.x
      value: 0
      objectReference: {fileID: 0}
    - target: {fileID: 8086614173453513277, guid: 7e8ab9f2ce99ac442a350a3f7dff2fd7,
        type: 3}
      propertyPath: m_LocalPosition.y
      value: 0
      objectReference: {fileID: 0}
    - target: {fileID: 8086614173453513277, guid: 7e8ab9f2ce99ac442a350a3f7dff2fd7,
        type: 3}
      propertyPath: m_LocalPosition.z
      value: 0
      objectReference: {fileID: 0}
    - target: {fileID: 8086614173453513277, guid: 7e8ab9f2ce99ac442a350a3f7dff2fd7,
        type: 3}
      propertyPath: m_LocalRotation.x
      value: 0
      objectReference: {fileID: 0}
    - target: {fileID: 8086614173453513277, guid: 7e8ab9f2ce99ac442a350a3f7dff2fd7,
        type: 3}
      propertyPath: m_LocalRotation.y
      value: 0
      objectReference: {fileID: 0}
    - target: {fileID: 8086614173453513277, guid: 7e8ab9f2ce99ac442a350a3f7dff2fd7,
        type: 3}
      propertyPath: m_LocalRotation.z
      value: 0
      objectReference: {fileID: 0}
    - target: {fileID: 8086614173453513277, guid: 7e8ab9f2ce99ac442a350a3f7dff2fd7,
        type: 3}
      propertyPath: m_LocalRotation.w
      value: 1
      objectReference: {fileID: 0}
    - target: {fileID: 8086614173453513277, guid: 7e8ab9f2ce99ac442a350a3f7dff2fd7,
        type: 3}
      propertyPath: m_RootOrder
      value: 0
      objectReference: {fileID: 0}
    - target: {fileID: 8086614173453513277, guid: 7e8ab9f2ce99ac442a350a3f7dff2fd7,
        type: 3}
      propertyPath: m_LocalEulerAnglesHint.x
      value: 0
      objectReference: {fileID: 0}
    - target: {fileID: 8086614173453513277, guid: 7e8ab9f2ce99ac442a350a3f7dff2fd7,
        type: 3}
      propertyPath: m_LocalEulerAnglesHint.y
      value: 0
      objectReference: {fileID: 0}
    - target: {fileID: 8086614173453513277, guid: 7e8ab9f2ce99ac442a350a3f7dff2fd7,
        type: 3}
      propertyPath: m_LocalEulerAnglesHint.z
      value: 0
      objectReference: {fileID: 0}
    - target: {fileID: 8895379001231911047, guid: 7e8ab9f2ce99ac442a350a3f7dff2fd7,
        type: 3}
      propertyPath: m_Name
      value: Bag1 Variant
      objectReference: {fileID: 0}
    m_RemovedComponents: []
  m_SourcePrefab: {fileID: 100100000, guid: 7e8ab9f2ce99ac442a350a3f7dff2fd7, type: 3}
--- !u!4 &1941420175129079379 stripped
Transform:
  m_CorrespondingSourceObject: {fileID: 8086614173453513277, guid: 7e8ab9f2ce99ac442a350a3f7dff2fd7,
    type: 3}
  m_PrefabInstance: {fileID: 7694439417033628782}
  m_PrefabAsset: {fileID: 0}
--- !u!1001 &8592481155992282348
PrefabInstance:
  m_ObjectHideFlags: 0
  serializedVersion: 2
  m_Modification:
    m_TransformParent: {fileID: 1941420175129079379}
    m_Modifications:
    - target: {fileID: -8679921383154817045, guid: 4966a32e4b247dd49ab9b1dff5415ab9,
        type: 3}
      propertyPath: m_LocalPosition.x
      value: 0
      objectReference: {fileID: 0}
    - target: {fileID: -8679921383154817045, guid: 4966a32e4b247dd49ab9b1dff5415ab9,
        type: 3}
      propertyPath: m_LocalPosition.y
      value: 0
      objectReference: {fileID: 0}
    - target: {fileID: -8679921383154817045, guid: 4966a32e4b247dd49ab9b1dff5415ab9,
        type: 3}
      propertyPath: m_LocalPosition.z
      value: 0
      objectReference: {fileID: 0}
    - target: {fileID: -8679921383154817045, guid: 4966a32e4b247dd49ab9b1dff5415ab9,
        type: 3}
      propertyPath: m_LocalRotation.x
      value: -0
      objectReference: {fileID: 0}
    - target: {fileID: -8679921383154817045, guid: 4966a32e4b247dd49ab9b1dff5415ab9,
        type: 3}
      propertyPath: m_LocalRotation.y
      value: -0
      objectReference: {fileID: 0}
    - target: {fileID: -8679921383154817045, guid: 4966a32e4b247dd49ab9b1dff5415ab9,
        type: 3}
      propertyPath: m_LocalRotation.z
      value: -0
      objectReference: {fileID: 0}
    - target: {fileID: -8679921383154817045, guid: 4966a32e4b247dd49ab9b1dff5415ab9,
        type: 3}
      propertyPath: m_LocalRotation.w
      value: 1
      objectReference: {fileID: 0}
    - target: {fileID: -8679921383154817045, guid: 4966a32e4b247dd49ab9b1dff5415ab9,
        type: 3}
      propertyPath: m_RootOrder
      value: 3
      objectReference: {fileID: 0}
    - target: {fileID: -8679921383154817045, guid: 4966a32e4b247dd49ab9b1dff5415ab9,
        type: 3}
      propertyPath: m_LocalEulerAnglesHint.x
      value: 0
      objectReference: {fileID: 0}
    - target: {fileID: -8679921383154817045, guid: 4966a32e4b247dd49ab9b1dff5415ab9,
        type: 3}
      propertyPath: m_LocalEulerAnglesHint.y
      value: 0
      objectReference: {fileID: 0}
    - target: {fileID: -8679921383154817045, guid: 4966a32e4b247dd49ab9b1dff5415ab9,
        type: 3}
      propertyPath: m_LocalEulerAnglesHint.z
      value: 0
      objectReference: {fileID: 0}
    - target: {fileID: 919132149155446097, guid: 4966a32e4b247dd49ab9b1dff5415ab9,
        type: 3}
      propertyPath: m_Name
      value: Bag1
      objectReference: {fileID: 0}
    m_RemovedComponents: []
  m_SourcePrefab: {fileID: 100100000, guid: 4966a32e4b247dd49ab9b1dff5415ab9, type: 3}
--- !u!1 &8935082045586364861 stripped
GameObject:
  m_CorrespondingSourceObject: {fileID: 919132149155446097, guid: 4966a32e4b247dd49ab9b1dff5415ab9,
    type: 3}
  m_PrefabInstance: {fileID: 8592481155992282348}
  m_PrefabAsset: {fileID: 0}
