%YAML 1.1
%TAG !u! tag:unity3d.com,2011:
--- !u!29 &1
OcclusionCullingSettings:
  m_ObjectHideFlags: 0
  serializedVersion: 2
  m_OcclusionBakeSettings:
    smallestOccluder: 5
    smallestHole: 0.25
    backfaceThreshold: 100
  m_SceneGUID: 00000000000000000000000000000000
  m_OcclusionCullingData: {fileID: 0}
--- !u!104 &2
RenderSettings:
  m_ObjectHideFlags: 0
  serializedVersion: 9
  m_Fog: 0
  m_FogColor: {r: 0.5, g: 0.5, b: 0.5, a: 1}
  m_FogMode: 3
  m_FogDensity: 0.01
  m_LinearFogStart: 0
  m_LinearFogEnd: 300
  m_AmbientSkyColor: {r: 0.212, g: 0.227, b: 0.259, a: 1}
  m_AmbientEquatorColor: {r: 0.114, g: 0.125, b: 0.133, a: 1}
  m_AmbientGroundColor: {r: 0.047, g: 0.043, b: 0.035, a: 1}
  m_AmbientIntensity: 1
  m_AmbientMode: 0
  m_SubtractiveShadowColor: {r: 0.42, g: 0.478, b: 0.627, a: 1}
  m_SkyboxMaterial: {fileID: 10304, guid: 0000000000000000f000000000000000, type: 0}
  m_HaloStrength: 0.5
  m_FlareStrength: 1
  m_FlareFadeSpeed: 3
  m_HaloTexture: {fileID: 0}
  m_SpotCookie: {fileID: 10001, guid: 0000000000000000e000000000000000, type: 0}
  m_DefaultReflectionMode: 0
  m_DefaultReflectionResolution: 128
  m_ReflectionBounces: 1
  m_ReflectionIntensity: 1
  m_CustomReflection: {fileID: 0}
  m_Sun: {fileID: 0}
  m_IndirectSpecularColor: {r: 0, g: 0, b: 0, a: 1}
  m_UseRadianceAmbientProbe: 0
--- !u!157 &3
LightmapSettings:
  m_ObjectHideFlags: 0
  serializedVersion: 11
  m_GIWorkflowMode: 1
  m_GISettings:
    serializedVersion: 2
    m_BounceScale: 1
    m_IndirectOutputScale: 1
    m_AlbedoBoost: 1
    m_EnvironmentLightingMode: 0
    m_EnableBakedLightmaps: 1
    m_EnableRealtimeLightmaps: 0
  m_LightmapEditorSettings:
    serializedVersion: 12
    m_Resolution: 2
    m_BakeResolution: 40
    m_AtlasSize: 1024
    m_AO: 0
    m_AOMaxDistance: 1
    m_CompAOExponent: 1
    m_CompAOExponentDirect: 0
    m_ExtractAmbientOcclusion: 0
    m_Padding: 2
    m_LightmapParameters: {fileID: 0}
    m_LightmapsBakeMode: 1
    m_TextureCompression: 1
    m_FinalGather: 0
    m_FinalGatherFiltering: 1
    m_FinalGatherRayCount: 256
    m_ReflectionCompression: 2
    m_MixedBakeMode: 2
    m_BakeBackend: 1
    m_PVRSampling: 1
    m_PVRDirectSampleCount: 32
    m_PVRSampleCount: 512
    m_PVRBounces: 2
    m_PVREnvironmentSampleCount: 256
    m_PVREnvironmentReferencePointCount: 2048
    m_PVRFilteringMode: 1
    m_PVRDenoiserTypeDirect: 1
    m_PVRDenoiserTypeIndirect: 1
    m_PVRDenoiserTypeAO: 1
    m_PVRFilterTypeDirect: 0
    m_PVRFilterTypeIndirect: 0
    m_PVRFilterTypeAO: 0
    m_PVREnvironmentMIS: 1
    m_PVRCulling: 1
    m_PVRFilteringGaussRadiusDirect: 1
    m_PVRFilteringGaussRadiusIndirect: 5
    m_PVRFilteringGaussRadiusAO: 2
    m_PVRFilteringAtrousPositionSigmaDirect: 0.5
    m_PVRFilteringAtrousPositionSigmaIndirect: 2
    m_PVRFilteringAtrousPositionSigmaAO: 1
    m_ExportTrainingData: 0
    m_TrainingDataDestination: TrainingData
    m_LightProbeSampleCountMultiplier: 4
  m_LightingDataAsset: {fileID: 0}
  m_UseShadowmask: 1
--- !u!196 &4
NavMeshSettings:
  serializedVersion: 2
  m_ObjectHideFlags: 0
  m_BuildSettings:
    serializedVersion: 2
    agentTypeID: 0
    agentRadius: 0.5
    agentHeight: 2
    agentSlope: 45
    agentClimb: 0.4
    ledgeDropHeight: 0
    maxJumpAcrossDistance: 0
    minRegionArea: 2
    manualCellSize: 0
    cellSize: 0.16666667
    manualTileSize: 0
    tileSize: 256
    accuratePlacement: 0
    debug:
      m_Flags: 0
  m_NavMeshData: {fileID: 0}
--- !u!1001 &1102219888
PrefabInstance:
  m_ObjectHideFlags: 0
  serializedVersion: 2
  m_Modification:
    m_TransformParent: {fileID: 0}
    m_Modifications:
    - target: {fileID: 312674952499502515, guid: b8e2ca12c6e65eb41987798f9fed7e29,
        type: 3}
      propertyPath: m_LocalRotation.x
      value: -0.09684827
      objectReference: {fileID: 0}
    - target: {fileID: 312674952499502515, guid: b8e2ca12c6e65eb41987798f9fed7e29,
        type: 3}
      propertyPath: m_LocalRotation.y
      value: 0.16111538
      objectReference: {fileID: 0}
    - target: {fileID: 312674952499502515, guid: b8e2ca12c6e65eb41987798f9fed7e29,
        type: 3}
      propertyPath: m_LocalRotation.z
      value: -0.69356465
      objectReference: {fileID: 0}
    - target: {fileID: 312674952499502515, guid: b8e2ca12c6e65eb41987798f9fed7e29,
        type: 3}
      propertyPath: m_LocalRotation.w
      value: 0.69543535
      objectReference: {fileID: 0}
    - target: {fileID: 312674952499502515, guid: b8e2ca12c6e65eb41987798f9fed7e29,
        type: 3}
      propertyPath: m_LocalPosition.x
      value: 0.00000008940697
      objectReference: {fileID: 0}
    - target: {fileID: 312674952499502515, guid: b8e2ca12c6e65eb41987798f9fed7e29,
        type: 3}
      propertyPath: m_LocalPosition.z
      value: -0.055700123
      objectReference: {fileID: 0}
    - target: {fileID: 478246162225673104, guid: b8e2ca12c6e65eb41987798f9fed7e29,
        type: 3}
      propertyPath: m_AnchorMin.y
      value: 0
      objectReference: {fileID: 0}
    - target: {fileID: 478246162225673104, guid: b8e2ca12c6e65eb41987798f9fed7e29,
        type: 3}
      propertyPath: m_AnchorMax.y
      value: 0
      objectReference: {fileID: 0}
    - target: {fileID: 478246162225673104, guid: b8e2ca12c6e65eb41987798f9fed7e29,
        type: 3}
      propertyPath: m_AnchoredPosition.x
      value: 0
      objectReference: {fileID: 0}
    - target: {fileID: 478246162225673104, guid: b8e2ca12c6e65eb41987798f9fed7e29,
        type: 3}
      propertyPath: m_AnchoredPosition.y
      value: 0
      objectReference: {fileID: 0}
    - target: {fileID: 478246162225673104, guid: b8e2ca12c6e65eb41987798f9fed7e29,
        type: 3}
      propertyPath: m_SizeDelta.x
      value: 0
      objectReference: {fileID: 0}
    - target: {fileID: 543927983872336049, guid: b8e2ca12c6e65eb41987798f9fed7e29,
        type: 3}
      propertyPath: m_LocalRotation.x
      value: -0.0968482
      objectReference: {fileID: 0}
    - target: {fileID: 543927983872336049, guid: b8e2ca12c6e65eb41987798f9fed7e29,
        type: 3}
      propertyPath: m_LocalRotation.y
      value: 0.16111533
      objectReference: {fileID: 0}
    - target: {fileID: 543927983872336049, guid: b8e2ca12c6e65eb41987798f9fed7e29,
        type: 3}
      propertyPath: m_LocalRotation.z
      value: -0.69356465
      objectReference: {fileID: 0}
    - target: {fileID: 543927983872336049, guid: b8e2ca12c6e65eb41987798f9fed7e29,
        type: 3}
      propertyPath: m_LocalRotation.w
      value: 0.69543546
      objectReference: {fileID: 0}
    - target: {fileID: 543927983872336049, guid: b8e2ca12c6e65eb41987798f9fed7e29,
        type: 3}
      propertyPath: m_LocalPosition.x
      value: -0.000000014901161
      objectReference: {fileID: 0}
    - target: {fileID: 543927983872336049, guid: b8e2ca12c6e65eb41987798f9fed7e29,
        type: 3}
      propertyPath: m_LocalPosition.z
      value: -0.055699974
      objectReference: {fileID: 0}
    - target: {fileID: 579332257055375552, guid: b8e2ca12c6e65eb41987798f9fed7e29,
        type: 3}
      propertyPath: m_AnchorMin.y
      value: 0
      objectReference: {fileID: 0}
    - target: {fileID: 579332257055375552, guid: b8e2ca12c6e65eb41987798f9fed7e29,
        type: 3}
      propertyPath: m_AnchorMax.y
      value: 0
      objectReference: {fileID: 0}
    - target: {fileID: 579332257055375552, guid: b8e2ca12c6e65eb41987798f9fed7e29,
        type: 3}
      propertyPath: m_AnchoredPosition.x
      value: 0
      objectReference: {fileID: 0}
    - target: {fileID: 579332257055375552, guid: b8e2ca12c6e65eb41987798f9fed7e29,
        type: 3}
      propertyPath: m_AnchoredPosition.y
      value: 0
      objectReference: {fileID: 0}
    - target: {fileID: 579332257055375552, guid: b8e2ca12c6e65eb41987798f9fed7e29,
        type: 3}
      propertyPath: m_SizeDelta.x
      value: 0
      objectReference: {fileID: 0}
    - target: {fileID: 579332257055375552, guid: b8e2ca12c6e65eb41987798f9fed7e29,
        type: 3}
      propertyPath: m_SizeDelta.y
      value: 0
      objectReference: {fileID: 0}
    - target: {fileID: 847660322936812941, guid: b8e2ca12c6e65eb41987798f9fed7e29,
        type: 3}
      propertyPath: on
      value: 0
      objectReference: {fileID: 0}
    - target: {fileID: 1097125333880703361, guid: b8e2ca12c6e65eb41987798f9fed7e29,
        type: 3}
      propertyPath: m_AnchorMin.y
      value: 0
      objectReference: {fileID: 0}
    - target: {fileID: 1097125333880703361, guid: b8e2ca12c6e65eb41987798f9fed7e29,
        type: 3}
      propertyPath: m_AnchorMax.y
      value: 0
      objectReference: {fileID: 0}
    - target: {fileID: 1097125333880703361, guid: b8e2ca12c6e65eb41987798f9fed7e29,
        type: 3}
      propertyPath: m_AnchoredPosition.x
      value: 0
      objectReference: {fileID: 0}
    - target: {fileID: 1097125333880703361, guid: b8e2ca12c6e65eb41987798f9fed7e29,
        type: 3}
      propertyPath: m_SizeDelta.x
      value: 0
      objectReference: {fileID: 0}
    - target: {fileID: 1153742309212178978, guid: b8e2ca12c6e65eb41987798f9fed7e29,
        type: 3}
      propertyPath: m_LocalPosition.x
      value: 0.062399995
      objectReference: {fileID: 0}
    - target: {fileID: 1153742309212178978, guid: b8e2ca12c6e65eb41987798f9fed7e29,
        type: 3}
      propertyPath: m_LocalPosition.y
      value: 0.032000028
      objectReference: {fileID: 0}
    - target: {fileID: 1153742309212178978, guid: b8e2ca12c6e65eb41987798f9fed7e29,
        type: 3}
      propertyPath: m_LocalPosition.z
      value: 0.000000015832484
      objectReference: {fileID: 0}
    - target: {fileID: 1213567804094704217, guid: b8e2ca12c6e65eb41987798f9fed7e29,
        type: 3}
      propertyPath: m_LocalPosition.x
      value: 0.062400047
      objectReference: {fileID: 0}
    - target: {fileID: 1213567804094704217, guid: b8e2ca12c6e65eb41987798f9fed7e29,
        type: 3}
      propertyPath: m_LocalPosition.y
      value: 0.031999998
      objectReference: {fileID: 0}
    - target: {fileID: 1213567804094704217, guid: b8e2ca12c6e65eb41987798f9fed7e29,
        type: 3}
      propertyPath: m_LocalPosition.z
      value: -0.000000115484
      objectReference: {fileID: 0}
    - target: {fileID: 1432381301540974201, guid: b8e2ca12c6e65eb41987798f9fed7e29,
        type: 3}
      propertyPath: m_AnchorMin.y
      value: 0
      objectReference: {fileID: 0}
    - target: {fileID: 1432381301540974201, guid: b8e2ca12c6e65eb41987798f9fed7e29,
        type: 3}
      propertyPath: m_AnchorMax.y
      value: 0
      objectReference: {fileID: 0}
    - target: {fileID: 1432381301540974201, guid: b8e2ca12c6e65eb41987798f9fed7e29,
        type: 3}
      propertyPath: m_AnchoredPosition.x
      value: 0
      objectReference: {fileID: 0}
    - target: {fileID: 1432381301540974201, guid: b8e2ca12c6e65eb41987798f9fed7e29,
        type: 3}
      propertyPath: m_AnchoredPosition.y
      value: 0
      objectReference: {fileID: 0}
    - target: {fileID: 1432381301540974201, guid: b8e2ca12c6e65eb41987798f9fed7e29,
        type: 3}
      propertyPath: m_SizeDelta.x
      value: 0
      objectReference: {fileID: 0}
    - target: {fileID: 1432381301540974201, guid: b8e2ca12c6e65eb41987798f9fed7e29,
        type: 3}
      propertyPath: m_SizeDelta.y
      value: 0
      objectReference: {fileID: 0}
    - target: {fileID: 1435980271355640545, guid: b8e2ca12c6e65eb41987798f9fed7e29,
        type: 3}
      propertyPath: m_AnchorMin.y
      value: 0
      objectReference: {fileID: 0}
    - target: {fileID: 1435980271355640545, guid: b8e2ca12c6e65eb41987798f9fed7e29,
        type: 3}
      propertyPath: m_AnchorMax.y
      value: 0
      objectReference: {fileID: 0}
    - target: {fileID: 1435980271355640545, guid: b8e2ca12c6e65eb41987798f9fed7e29,
        type: 3}
      propertyPath: m_AnchoredPosition.x
      value: 0
      objectReference: {fileID: 0}
    - target: {fileID: 1435980271355640545, guid: b8e2ca12c6e65eb41987798f9fed7e29,
        type: 3}
      propertyPath: m_AnchoredPosition.y
      value: 0
      objectReference: {fileID: 0}
    - target: {fileID: 1435980271355640545, guid: b8e2ca12c6e65eb41987798f9fed7e29,
        type: 3}
      propertyPath: m_SizeDelta.x
      value: 0
      objectReference: {fileID: 0}
    - target: {fileID: 1435980271355640545, guid: b8e2ca12c6e65eb41987798f9fed7e29,
        type: 3}
      propertyPath: m_SizeDelta.y
      value: 0
      objectReference: {fileID: 0}
    - target: {fileID: 1511066362346785931, guid: b8e2ca12c6e65eb41987798f9fed7e29,
        type: 3}
      propertyPath: m_AnchorMin.y
      value: 0
      objectReference: {fileID: 0}
    - target: {fileID: 1511066362346785931, guid: b8e2ca12c6e65eb41987798f9fed7e29,
        type: 3}
      propertyPath: m_AnchorMax.y
      value: 0
      objectReference: {fileID: 0}
    - target: {fileID: 1511066362346785931, guid: b8e2ca12c6e65eb41987798f9fed7e29,
        type: 3}
      propertyPath: m_AnchoredPosition.x
      value: 0
      objectReference: {fileID: 0}
    - target: {fileID: 1511066362346785931, guid: b8e2ca12c6e65eb41987798f9fed7e29,
        type: 3}
      propertyPath: m_AnchoredPosition.y
      value: 0
      objectReference: {fileID: 0}
    - target: {fileID: 1511066362346785931, guid: b8e2ca12c6e65eb41987798f9fed7e29,
        type: 3}
      propertyPath: m_SizeDelta.x
      value: 0
      objectReference: {fileID: 0}
    - target: {fileID: 1511066362346785931, guid: b8e2ca12c6e65eb41987798f9fed7e29,
        type: 3}
      propertyPath: m_SizeDelta.y
      value: 0
      objectReference: {fileID: 0}
    - target: {fileID: 1721974220919105450, guid: b8e2ca12c6e65eb41987798f9fed7e29,
        type: 3}
      propertyPath: m_AnchorMin.y
      value: 0
      objectReference: {fileID: 0}
    - target: {fileID: 1721974220919105450, guid: b8e2ca12c6e65eb41987798f9fed7e29,
        type: 3}
      propertyPath: m_AnchorMax.y
      value: 0
      objectReference: {fileID: 0}
    - target: {fileID: 1721974220919105450, guid: b8e2ca12c6e65eb41987798f9fed7e29,
        type: 3}
      propertyPath: m_AnchoredPosition.x
      value: 0
      objectReference: {fileID: 0}
    - target: {fileID: 1721974220919105450, guid: b8e2ca12c6e65eb41987798f9fed7e29,
        type: 3}
      propertyPath: m_AnchoredPosition.y
      value: 0
      objectReference: {fileID: 0}
    - target: {fileID: 1721974220919105450, guid: b8e2ca12c6e65eb41987798f9fed7e29,
        type: 3}
      propertyPath: m_SizeDelta.x
      value: 0
      objectReference: {fileID: 0}
    - target: {fileID: 1721974220919105450, guid: b8e2ca12c6e65eb41987798f9fed7e29,
        type: 3}
      propertyPath: m_SizeDelta.y
      value: 0
      objectReference: {fileID: 0}
    - target: {fileID: 1889302226422474992, guid: b8e2ca12c6e65eb41987798f9fed7e29,
        type: 3}
      propertyPath: m_LocalPosition.x
      value: -0.05120037
      objectReference: {fileID: 0}
    - target: {fileID: 1889302226422474992, guid: b8e2ca12c6e65eb41987798f9fed7e29,
        type: 3}
      propertyPath: m_LocalPosition.z
      value: 0.000000049709342
      objectReference: {fileID: 0}
    - target: {fileID: 1908115587004232644, guid: b8e2ca12c6e65eb41987798f9fed7e29,
        type: 3}
      propertyPath: m_AnchorMin.y
      value: 0
      objectReference: {fileID: 0}
    - target: {fileID: 1908115587004232644, guid: b8e2ca12c6e65eb41987798f9fed7e29,
        type: 3}
      propertyPath: m_AnchorMax.y
      value: 0
      objectReference: {fileID: 0}
    - target: {fileID: 1908115587004232644, guid: b8e2ca12c6e65eb41987798f9fed7e29,
        type: 3}
      propertyPath: m_AnchoredPosition.x
      value: 0
      objectReference: {fileID: 0}
    - target: {fileID: 1908115587004232644, guid: b8e2ca12c6e65eb41987798f9fed7e29,
        type: 3}
      propertyPath: m_AnchoredPosition.y
      value: 0
      objectReference: {fileID: 0}
    - target: {fileID: 1908115587004232644, guid: b8e2ca12c6e65eb41987798f9fed7e29,
        type: 3}
      propertyPath: m_SizeDelta.x
      value: 0
      objectReference: {fileID: 0}
    - target: {fileID: 1908115587004232644, guid: b8e2ca12c6e65eb41987798f9fed7e29,
        type: 3}
      propertyPath: m_SizeDelta.y
      value: 0
      objectReference: {fileID: 0}
    - target: {fileID: 1908115587488039142, guid: b8e2ca12c6e65eb41987798f9fed7e29,
        type: 3}
      propertyPath: m_AnchorMin.y
      value: 0
      objectReference: {fileID: 0}
    - target: {fileID: 1908115587488039142, guid: b8e2ca12c6e65eb41987798f9fed7e29,
        type: 3}
      propertyPath: m_AnchorMax.y
      value: 0
      objectReference: {fileID: 0}
    - target: {fileID: 1908115587488039142, guid: b8e2ca12c6e65eb41987798f9fed7e29,
        type: 3}
      propertyPath: m_AnchoredPosition.x
      value: 0
      objectReference: {fileID: 0}
    - target: {fileID: 1908115587488039142, guid: b8e2ca12c6e65eb41987798f9fed7e29,
        type: 3}
      propertyPath: m_AnchoredPosition.y
      value: 0
      objectReference: {fileID: 0}
    - target: {fileID: 1908115587488039142, guid: b8e2ca12c6e65eb41987798f9fed7e29,
        type: 3}
      propertyPath: m_SizeDelta.x
      value: 0
      objectReference: {fileID: 0}
    - target: {fileID: 1908115587488039142, guid: b8e2ca12c6e65eb41987798f9fed7e29,
        type: 3}
      propertyPath: m_SizeDelta.y
      value: 0
      objectReference: {fileID: 0}
    - target: {fileID: 2034541682212251579, guid: b8e2ca12c6e65eb41987798f9fed7e29,
        type: 3}
      propertyPath: m_LocalPosition.x
      value: -0.040900063
      objectReference: {fileID: 0}
    - target: {fileID: 2034541682212251579, guid: b8e2ca12c6e65eb41987798f9fed7e29,
        type: 3}
      propertyPath: m_LocalPosition.y
      value: 0
      objectReference: {fileID: 0}
    - target: {fileID: 2034541682212251579, guid: b8e2ca12c6e65eb41987798f9fed7e29,
        type: 3}
      propertyPath: m_LocalPosition.z
      value: 0.02319988
      objectReference: {fileID: 0}
    - target: {fileID: 2143787963138461014, guid: b8e2ca12c6e65eb41987798f9fed7e29,
        type: 3}
      propertyPath: m_LocalPosition.y
      value: 0.021800041
      objectReference: {fileID: 0}
    - target: {fileID: 2560952346193219349, guid: b8e2ca12c6e65eb41987798f9fed7e29,
        type: 3}
      propertyPath: m_LocalPosition.y
      value: 0.021800041
      objectReference: {fileID: 0}
    - target: {fileID: 2560952346193219349, guid: b8e2ca12c6e65eb41987798f9fed7e29,
        type: 3}
      propertyPath: m_LocalPosition.z
      value: -0.007300023
      objectReference: {fileID: 0}
    - target: {fileID: 2581511083029469344, guid: b8e2ca12c6e65eb41987798f9fed7e29,
        type: 3}
      propertyPath: m_AnchorMin.y
      value: 0
      objectReference: {fileID: 0}
    - target: {fileID: 2581511083029469344, guid: b8e2ca12c6e65eb41987798f9fed7e29,
        type: 3}
      propertyPath: m_AnchorMax.y
      value: 0
      objectReference: {fileID: 0}
    - target: {fileID: 2581511083029469344, guid: b8e2ca12c6e65eb41987798f9fed7e29,
        type: 3}
      propertyPath: m_AnchoredPosition.x
      value: 0
      objectReference: {fileID: 0}
    - target: {fileID: 2581511083029469344, guid: b8e2ca12c6e65eb41987798f9fed7e29,
        type: 3}
      propertyPath: m_AnchoredPosition.y
      value: 0
      objectReference: {fileID: 0}
    - target: {fileID: 2581511083029469344, guid: b8e2ca12c6e65eb41987798f9fed7e29,
        type: 3}
      propertyPath: m_SizeDelta.x
      value: 0
      objectReference: {fileID: 0}
    - target: {fileID: 2581511083029469344, guid: b8e2ca12c6e65eb41987798f9fed7e29,
        type: 3}
      propertyPath: m_SizeDelta.y
      value: 0
      objectReference: {fileID: 0}
    - target: {fileID: 2733279323047939917, guid: b8e2ca12c6e65eb41987798f9fed7e29,
        type: 3}
      propertyPath: m_LocalPosition.x
      value: 0.013900042
      objectReference: {fileID: 0}
    - target: {fileID: 2733279323047939917, guid: b8e2ca12c6e65eb41987798f9fed7e29,
        type: 3}
      propertyPath: m_LocalPosition.y
      value: 0.042400002
      objectReference: {fileID: 0}
    - target: {fileID: 2733279323047939917, guid: b8e2ca12c6e65eb41987798f9fed7e29,
        type: 3}
      propertyPath: m_LocalPosition.z
      value: 0.1046
      objectReference: {fileID: 0}
    - target: {fileID: 2963084972058691457, guid: b8e2ca12c6e65eb41987798f9fed7e29,
        type: 3}
      propertyPath: m_LocalPosition.x
      value: 0.05239988
      objectReference: {fileID: 0}
    - target: {fileID: 2963084972058691457, guid: b8e2ca12c6e65eb41987798f9fed7e29,
        type: 3}
      propertyPath: m_LocalPosition.y
      value: 0
      objectReference: {fileID: 0}
    - target: {fileID: 2963084972058691457, guid: b8e2ca12c6e65eb41987798f9fed7e29,
        type: 3}
      propertyPath: m_LocalPosition.z
      value: -0.08499999
      objectReference: {fileID: 0}
    - target: {fileID: 3050979661489337651, guid: b8e2ca12c6e65eb41987798f9fed7e29,
        type: 3}
      propertyPath: m_AnchorMin.y
      value: 0
      objectReference: {fileID: 0}
    - target: {fileID: 3050979661489337651, guid: b8e2ca12c6e65eb41987798f9fed7e29,
        type: 3}
      propertyPath: m_AnchorMax.y
      value: 0
      objectReference: {fileID: 0}
    - target: {fileID: 3050979661489337651, guid: b8e2ca12c6e65eb41987798f9fed7e29,
        type: 3}
      propertyPath: m_AnchoredPosition.x
      value: 0
      objectReference: {fileID: 0}
    - target: {fileID: 3050979661489337651, guid: b8e2ca12c6e65eb41987798f9fed7e29,
        type: 3}
      propertyPath: m_AnchoredPosition.y
      value: 0
      objectReference: {fileID: 0}
    - target: {fileID: 3050979661489337651, guid: b8e2ca12c6e65eb41987798f9fed7e29,
        type: 3}
      propertyPath: m_SizeDelta.x
      value: 0
      objectReference: {fileID: 0}
    - target: {fileID: 3050979661489337651, guid: b8e2ca12c6e65eb41987798f9fed7e29,
        type: 3}
      propertyPath: m_SizeDelta.y
      value: 0
      objectReference: {fileID: 0}
    - target: {fileID: 3116678000139848851, guid: b8e2ca12c6e65eb41987798f9fed7e29,
        type: 3}
      propertyPath: m_AnchorMin.y
      value: 0
      objectReference: {fileID: 0}
    - target: {fileID: 3116678000139848851, guid: b8e2ca12c6e65eb41987798f9fed7e29,
        type: 3}
      propertyPath: m_AnchorMax.y
      value: 0
      objectReference: {fileID: 0}
    - target: {fileID: 3116678000139848851, guid: b8e2ca12c6e65eb41987798f9fed7e29,
        type: 3}
      propertyPath: m_AnchoredPosition.x
      value: 0
      objectReference: {fileID: 0}
    - target: {fileID: 3116678000139848851, guid: b8e2ca12c6e65eb41987798f9fed7e29,
        type: 3}
      propertyPath: m_AnchoredPosition.y
      value: 0
      objectReference: {fileID: 0}
    - target: {fileID: 3116678000139848851, guid: b8e2ca12c6e65eb41987798f9fed7e29,
        type: 3}
      propertyPath: m_SizeDelta.x
      value: 0
      objectReference: {fileID: 0}
    - target: {fileID: 3116678000139848851, guid: b8e2ca12c6e65eb41987798f9fed7e29,
        type: 3}
      propertyPath: m_SizeDelta.y
      value: 0
      objectReference: {fileID: 0}
    - target: {fileID: 3221151178813248524, guid: b8e2ca12c6e65eb41987798f9fed7e29,
        type: 3}
      propertyPath: m_LocalRotation.x
      value: -0.6995449
      objectReference: {fileID: 0}
    - target: {fileID: 3221151178813248524, guid: b8e2ca12c6e65eb41987798f9fed7e29,
        type: 3}
      propertyPath: m_LocalRotation.y
      value: 0.7132051
      objectReference: {fileID: 0}
    - target: {fileID: 3221151178813248524, guid: b8e2ca12c6e65eb41987798f9fed7e29,
        type: 3}
      propertyPath: m_LocalRotation.z
      value: -0.032377142
      objectReference: {fileID: 0}
    - target: {fileID: 3221151178813248524, guid: b8e2ca12c6e65eb41987798f9fed7e29,
        type: 3}
      propertyPath: m_LocalRotation.w
      value: -0.030449199
      objectReference: {fileID: 0}
    - target: {fileID: 3221151178813248524, guid: b8e2ca12c6e65eb41987798f9fed7e29,
        type: 3}
      propertyPath: m_LocalPosition.x
      value: -0.000000007916242
      objectReference: {fileID: 0}
    - target: {fileID: 3221151178813248524, guid: b8e2ca12c6e65eb41987798f9fed7e29,
        type: 3}
      propertyPath: m_LocalPosition.z
      value: 0.024499908
      objectReference: {fileID: 0}
    - target: {fileID: 3233884808845004834, guid: b8e2ca12c6e65eb41987798f9fed7e29,
        type: 3}
      propertyPath: m_Name
      value: home
      objectReference: {fileID: 0}
    - target: {fileID: 3233884808845004835, guid: b8e2ca12c6e65eb41987798f9fed7e29,
        type: 3}
      propertyPath: m_LocalPosition.x
      value: 0
      objectReference: {fileID: 0}
    - target: {fileID: 3233884808845004835, guid: b8e2ca12c6e65eb41987798f9fed7e29,
        type: 3}
      propertyPath: m_LocalPosition.y
      value: 0
      objectReference: {fileID: 0}
    - target: {fileID: 3233884808845004835, guid: b8e2ca12c6e65eb41987798f9fed7e29,
        type: 3}
      propertyPath: m_LocalPosition.z
      value: 0
      objectReference: {fileID: 0}
    - target: {fileID: 3233884808845004835, guid: b8e2ca12c6e65eb41987798f9fed7e29,
        type: 3}
      propertyPath: m_LocalRotation.x
      value: 0
      objectReference: {fileID: 0}
    - target: {fileID: 3233884808845004835, guid: b8e2ca12c6e65eb41987798f9fed7e29,
        type: 3}
      propertyPath: m_LocalRotation.y
      value: 0
      objectReference: {fileID: 0}
    - target: {fileID: 3233884808845004835, guid: b8e2ca12c6e65eb41987798f9fed7e29,
        type: 3}
      propertyPath: m_LocalRotation.z
      value: 0
      objectReference: {fileID: 0}
    - target: {fileID: 3233884808845004835, guid: b8e2ca12c6e65eb41987798f9fed7e29,
        type: 3}
      propertyPath: m_LocalRotation.w
      value: 1
      objectReference: {fileID: 0}
    - target: {fileID: 3233884808845004835, guid: b8e2ca12c6e65eb41987798f9fed7e29,
        type: 3}
      propertyPath: m_RootOrder
      value: 1
      objectReference: {fileID: 0}
    - target: {fileID: 3233884808845004835, guid: b8e2ca12c6e65eb41987798f9fed7e29,
        type: 3}
      propertyPath: m_LocalEulerAnglesHint.x
      value: 0
      objectReference: {fileID: 0}
    - target: {fileID: 3233884808845004835, guid: b8e2ca12c6e65eb41987798f9fed7e29,
        type: 3}
      propertyPath: m_LocalEulerAnglesHint.y
      value: 0
      objectReference: {fileID: 0}
    - target: {fileID: 3233884808845004835, guid: b8e2ca12c6e65eb41987798f9fed7e29,
        type: 3}
      propertyPath: m_LocalEulerAnglesHint.z
      value: 0
      objectReference: {fileID: 0}
    - target: {fileID: 3416367648835987726, guid: b8e2ca12c6e65eb41987798f9fed7e29,
        type: 3}
      propertyPath: m_LocalRotation.x
      value: 0.6995449
      objectReference: {fileID: 0}
    - target: {fileID: 3416367648835987726, guid: b8e2ca12c6e65eb41987798f9fed7e29,
        type: 3}
      propertyPath: m_LocalRotation.y
      value: -0.71320516
      objectReference: {fileID: 0}
    - target: {fileID: 3416367648835987726, guid: b8e2ca12c6e65eb41987798f9fed7e29,
        type: 3}
      propertyPath: m_LocalRotation.z
      value: 0.032377183
      objectReference: {fileID: 0}
    - target: {fileID: 3416367648835987726, guid: b8e2ca12c6e65eb41987798f9fed7e29,
        type: 3}
      propertyPath: m_LocalRotation.w
      value: 0.030449152
      objectReference: {fileID: 0}
    - target: {fileID: 3416367648835987726, guid: b8e2ca12c6e65eb41987798f9fed7e29,
        type: 3}
      propertyPath: m_LocalPosition.x
      value: 0.00000085681677
      objectReference: {fileID: 0}
    - target: {fileID: 3416367648835987726, guid: b8e2ca12c6e65eb41987798f9fed7e29,
        type: 3}
      propertyPath: m_LocalPosition.z
      value: 0.024500012
      objectReference: {fileID: 0}
    - target: {fileID: 3553594247954662675, guid: b8e2ca12c6e65eb41987798f9fed7e29,
        type: 3}
      propertyPath: m_LocalPosition.x
      value: 0.06239998
      objectReference: {fileID: 0}
    - target: {fileID: 3553594247954662675, guid: b8e2ca12c6e65eb41987798f9fed7e29,
        type: 3}
      propertyPath: m_LocalPosition.y
      value: 0.032000005
      objectReference: {fileID: 0}
    - target: {fileID: 3553594247954662675, guid: b8e2ca12c6e65eb41987798f9fed7e29,
        type: 3}
      propertyPath: m_LocalPosition.z
      value: 0.0000000013969839
      objectReference: {fileID: 0}
    - target: {fileID: 3657308155711833516, guid: b8e2ca12c6e65eb41987798f9fed7e29,
        type: 3}
      propertyPath: m_LocalPosition.x
      value: -0.06879997
      objectReference: {fileID: 0}
    - target: {fileID: 3657308155711833516, guid: b8e2ca12c6e65eb41987798f9fed7e29,
        type: 3}
      propertyPath: m_LocalPosition.z
      value: -0.023200035
      objectReference: {fileID: 0}
    - target: {fileID: 3738231948959585170, guid: b8e2ca12c6e65eb41987798f9fed7e29,
        type: 3}
      propertyPath: m_LocalPosition.x
      value: 0.062399894
      objectReference: {fileID: 0}
    - target: {fileID: 3738231948959585170, guid: b8e2ca12c6e65eb41987798f9fed7e29,
        type: 3}
      propertyPath: m_LocalPosition.y
      value: 0.032000035
      objectReference: {fileID: 0}
    - target: {fileID: 3738231948959585170, guid: b8e2ca12c6e65eb41987798f9fed7e29,
        type: 3}
      propertyPath: m_LocalPosition.z
      value: -0.000000007450581
      objectReference: {fileID: 0}
    - target: {fileID: 4070410163407073618, guid: b8e2ca12c6e65eb41987798f9fed7e29,
        type: 3}
      propertyPath: m_AnchorMin.y
      value: 0
      objectReference: {fileID: 0}
    - target: {fileID: 4070410163407073618, guid: b8e2ca12c6e65eb41987798f9fed7e29,
        type: 3}
      propertyPath: m_AnchorMax.y
      value: 0
      objectReference: {fileID: 0}
    - target: {fileID: 4070410163407073618, guid: b8e2ca12c6e65eb41987798f9fed7e29,
        type: 3}
      propertyPath: m_AnchoredPosition.x
      value: 0
      objectReference: {fileID: 0}
    - target: {fileID: 4070410163407073618, guid: b8e2ca12c6e65eb41987798f9fed7e29,
        type: 3}
      propertyPath: m_AnchoredPosition.y
      value: 0
      objectReference: {fileID: 0}
    - target: {fileID: 4070410163407073618, guid: b8e2ca12c6e65eb41987798f9fed7e29,
        type: 3}
      propertyPath: m_SizeDelta.x
      value: 0
      objectReference: {fileID: 0}
    - target: {fileID: 4070410163407073618, guid: b8e2ca12c6e65eb41987798f9fed7e29,
        type: 3}
      propertyPath: m_SizeDelta.y
      value: 0
      objectReference: {fileID: 0}
    - target: {fileID: 4073365127522257668, guid: b8e2ca12c6e65eb41987798f9fed7e29,
        type: 3}
      propertyPath: m_LocalPosition.x
      value: -0.08600003
      objectReference: {fileID: 0}
    - target: {fileID: 4073365127522257668, guid: b8e2ca12c6e65eb41987798f9fed7e29,
        type: 3}
      propertyPath: m_LocalPosition.z
      value: -0.007300053
      objectReference: {fileID: 0}
    - target: {fileID: 4149689293297953759, guid: b8e2ca12c6e65eb41987798f9fed7e29,
        type: 3}
      propertyPath: m_LocalPosition.x
      value: -0.051900335
      objectReference: {fileID: 0}
    - target: {fileID: 4149689293297953759, guid: b8e2ca12c6e65eb41987798f9fed7e29,
        type: 3}
      propertyPath: m_LocalPosition.z
      value: -0.027099984
      objectReference: {fileID: 0}
    - target: {fileID: 4369759675951021153, guid: b8e2ca12c6e65eb41987798f9fed7e29,
        type: 3}
      propertyPath: m_AnchorMin.y
      value: 0
      objectReference: {fileID: 0}
    - target: {fileID: 4369759675951021153, guid: b8e2ca12c6e65eb41987798f9fed7e29,
        type: 3}
      propertyPath: m_AnchorMax.y
      value: 0
      objectReference: {fileID: 0}
    - target: {fileID: 4369759675951021153, guid: b8e2ca12c6e65eb41987798f9fed7e29,
        type: 3}
      propertyPath: m_AnchoredPosition.x
      value: 0
      objectReference: {fileID: 0}
    - target: {fileID: 4369759675951021153, guid: b8e2ca12c6e65eb41987798f9fed7e29,
        type: 3}
      propertyPath: m_AnchoredPosition.y
      value: 0
      objectReference: {fileID: 0}
    - target: {fileID: 4369759675951021153, guid: b8e2ca12c6e65eb41987798f9fed7e29,
        type: 3}
      propertyPath: m_SizeDelta.x
      value: 0
      objectReference: {fileID: 0}
    - target: {fileID: 4369759675951021153, guid: b8e2ca12c6e65eb41987798f9fed7e29,
        type: 3}
      propertyPath: m_SizeDelta.y
      value: 0
      objectReference: {fileID: 0}
    - target: {fileID: 4386706665610476547, guid: b8e2ca12c6e65eb41987798f9fed7e29,
        type: 3}
      propertyPath: m_LocalPosition.y
      value: 0.021799982
      objectReference: {fileID: 0}
    - target: {fileID: 4525806315685802717, guid: b8e2ca12c6e65eb41987798f9fed7e29,
        type: 3}
      propertyPath: m_LocalPosition.y
      value: 0
      objectReference: {fileID: 0}
    - target: {fileID: 4525806315685802717, guid: b8e2ca12c6e65eb41987798f9fed7e29,
        type: 3}
      propertyPath: m_LocalRotation.x
      value: -0
      objectReference: {fileID: 0}
    - target: {fileID: 4525806315685802717, guid: b8e2ca12c6e65eb41987798f9fed7e29,
        type: 3}
      propertyPath: m_LocalRotation.y
      value: -1
      objectReference: {fileID: 0}
    - target: {fileID: 4525806315685802717, guid: b8e2ca12c6e65eb41987798f9fed7e29,
        type: 3}
      propertyPath: m_LocalRotation.z
      value: -0
      objectReference: {fileID: 0}
    - target: {fileID: 4525806315685802717, guid: b8e2ca12c6e65eb41987798f9fed7e29,
        type: 3}
      propertyPath: m_LocalRotation.w
      value: 0
      objectReference: {fileID: 0}
    - target: {fileID: 4525806315685802717, guid: b8e2ca12c6e65eb41987798f9fed7e29,
        type: 3}
      propertyPath: m_LocalPosition.x
      value: -0.00000002910383
      objectReference: {fileID: 0}
    - target: {fileID: 4525806315685802717, guid: b8e2ca12c6e65eb41987798f9fed7e29,
        type: 3}
      propertyPath: m_LocalPosition.z
      value: -0.000000005122274
      objectReference: {fileID: 0}
    - target: {fileID: 4565529750541610282, guid: b8e2ca12c6e65eb41987798f9fed7e29,
        type: 3}
      propertyPath: m_LocalPosition.x
      value: -0.06879997
      objectReference: {fileID: 0}
    - target: {fileID: 4565529750541610282, guid: b8e2ca12c6e65eb41987798f9fed7e29,
        type: 3}
      propertyPath: m_LocalPosition.z
      value: -0.023200035
      objectReference: {fileID: 0}
    - target: {fileID: 4721565010226319384, guid: b8e2ca12c6e65eb41987798f9fed7e29,
        type: 3}
      propertyPath: m_LocalPosition.x
      value: -0.040899847
      objectReference: {fileID: 0}
    - target: {fileID: 4721565010226319384, guid: b8e2ca12c6e65eb41987798f9fed7e29,
        type: 3}
      propertyPath: m_LocalPosition.y
      value: 0
      objectReference: {fileID: 0}
    - target: {fileID: 4721565010226319384, guid: b8e2ca12c6e65eb41987798f9fed7e29,
        type: 3}
      propertyPath: m_LocalPosition.z
      value: 0.023199998
      objectReference: {fileID: 0}
    - target: {fileID: 4919709385353572194, guid: b8e2ca12c6e65eb41987798f9fed7e29,
        type: 3}
      propertyPath: on
      value: 1
      objectReference: {fileID: 0}
    - target: {fileID: 4940587252379308266, guid: b8e2ca12c6e65eb41987798f9fed7e29,
        type: 3}
      propertyPath: m_LocalPosition.x
      value: -0.085999966
      objectReference: {fileID: 0}
    - target: {fileID: 4940587252379308266, guid: b8e2ca12c6e65eb41987798f9fed7e29,
        type: 3}
      propertyPath: m_LocalPosition.z
      value: -0.0072999
      objectReference: {fileID: 0}
    - target: {fileID: 5156057558130899061, guid: b8e2ca12c6e65eb41987798f9fed7e29,
        type: 3}
      propertyPath: m_LocalPosition.x
      value: -0.04230003
      objectReference: {fileID: 0}
    - target: {fileID: 5156057558130899061, guid: b8e2ca12c6e65eb41987798f9fed7e29,
        type: 3}
      propertyPath: m_LocalPosition.y
      value: 0
      objectReference: {fileID: 0}
    - target: {fileID: 5156057558130899061, guid: b8e2ca12c6e65eb41987798f9fed7e29,
        type: 3}
      propertyPath: m_LocalPosition.z
      value: 0.000000039115548
      objectReference: {fileID: 0}
    - target: {fileID: 5314825030342324548, guid: b8e2ca12c6e65eb41987798f9fed7e29,
        type: 3}
      propertyPath: m_AnchorMin.y
      value: 0
      objectReference: {fileID: 0}
    - target: {fileID: 5314825030342324548, guid: b8e2ca12c6e65eb41987798f9fed7e29,
        type: 3}
      propertyPath: m_AnchorMax.y
      value: 0
      objectReference: {fileID: 0}
    - target: {fileID: 5314825030342324548, guid: b8e2ca12c6e65eb41987798f9fed7e29,
        type: 3}
      propertyPath: m_AnchoredPosition.x
      value: 0
      objectReference: {fileID: 0}
    - target: {fileID: 5314825030342324548, guid: b8e2ca12c6e65eb41987798f9fed7e29,
        type: 3}
      propertyPath: m_AnchoredPosition.y
      value: 0
      objectReference: {fileID: 0}
    - target: {fileID: 5314825030342324548, guid: b8e2ca12c6e65eb41987798f9fed7e29,
        type: 3}
      propertyPath: m_SizeDelta.x
      value: 0
      objectReference: {fileID: 0}
    - target: {fileID: 5314825030342324548, guid: b8e2ca12c6e65eb41987798f9fed7e29,
        type: 3}
      propertyPath: m_SizeDelta.y
      value: 0
      objectReference: {fileID: 0}
    - target: {fileID: 5801299766906033271, guid: b8e2ca12c6e65eb41987798f9fed7e29,
        type: 3}
      propertyPath: m_AnchorMin.y
      value: 0
      objectReference: {fileID: 0}
    - target: {fileID: 5801299766906033271, guid: b8e2ca12c6e65eb41987798f9fed7e29,
        type: 3}
      propertyPath: m_AnchorMax.y
      value: 0
      objectReference: {fileID: 0}
    - target: {fileID: 5801299766906033271, guid: b8e2ca12c6e65eb41987798f9fed7e29,
        type: 3}
      propertyPath: m_AnchoredPosition.x
      value: 0
      objectReference: {fileID: 0}
    - target: {fileID: 5801299766906033271, guid: b8e2ca12c6e65eb41987798f9fed7e29,
        type: 3}
      propertyPath: m_AnchoredPosition.y
      value: 0
      objectReference: {fileID: 0}
    - target: {fileID: 5801299766906033271, guid: b8e2ca12c6e65eb41987798f9fed7e29,
        type: 3}
      propertyPath: m_SizeDelta.x
      value: 0
      objectReference: {fileID: 0}
    - target: {fileID: 5801299766906033271, guid: b8e2ca12c6e65eb41987798f9fed7e29,
        type: 3}
      propertyPath: m_SizeDelta.y
      value: 0
      objectReference: {fileID: 0}
    - target: {fileID: 5817258911315317254, guid: b8e2ca12c6e65eb41987798f9fed7e29,
        type: 3}
      propertyPath: m_AnchorMin.y
      value: 0
      objectReference: {fileID: 0}
    - target: {fileID: 5817258911315317254, guid: b8e2ca12c6e65eb41987798f9fed7e29,
        type: 3}
      propertyPath: m_AnchorMax.y
      value: 0
      objectReference: {fileID: 0}
    - target: {fileID: 5817258911315317254, guid: b8e2ca12c6e65eb41987798f9fed7e29,
        type: 3}
      propertyPath: m_AnchoredPosition.x
      value: 0
      objectReference: {fileID: 0}
    - target: {fileID: 5817258911315317254, guid: b8e2ca12c6e65eb41987798f9fed7e29,
        type: 3}
      propertyPath: m_AnchoredPosition.y
      value: 0
      objectReference: {fileID: 0}
    - target: {fileID: 5817258911315317254, guid: b8e2ca12c6e65eb41987798f9fed7e29,
        type: 3}
      propertyPath: m_SizeDelta.x
      value: 0
      objectReference: {fileID: 0}
    - target: {fileID: 5979369685443934736, guid: b8e2ca12c6e65eb41987798f9fed7e29,
        type: 3}
      propertyPath: m_LocalPosition.x
      value: 0.013900042
      objectReference: {fileID: 0}
    - target: {fileID: 5979369685443934736, guid: b8e2ca12c6e65eb41987798f9fed7e29,
        type: 3}
      propertyPath: m_LocalPosition.y
      value: 0.042400002
      objectReference: {fileID: 0}
    - target: {fileID: 5979369685443934736, guid: b8e2ca12c6e65eb41987798f9fed7e29,
        type: 3}
      propertyPath: m_LocalPosition.z
      value: 0.1046
      objectReference: {fileID: 0}
    - target: {fileID: 6149706410118854153, guid: b8e2ca12c6e65eb41987798f9fed7e29,
        type: 3}
      propertyPath: m_LocalPosition.x
      value: -0.051899914
      objectReference: {fileID: 0}
    - target: {fileID: 6149706410118854153, guid: b8e2ca12c6e65eb41987798f9fed7e29,
        type: 3}
      propertyPath: m_LocalPosition.z
      value: -0.02710022
      objectReference: {fileID: 0}
    - target: {fileID: 6152242471740405199, guid: b8e2ca12c6e65eb41987798f9fed7e29,
        type: 3}
      propertyPath: m_LocalPosition.x
      value: -0.04090007
      objectReference: {fileID: 0}
    - target: {fileID: 6152242471740405199, guid: b8e2ca12c6e65eb41987798f9fed7e29,
        type: 3}
      propertyPath: m_LocalPosition.y
      value: 0
      objectReference: {fileID: 0}
    - target: {fileID: 6152242471740405199, guid: b8e2ca12c6e65eb41987798f9fed7e29,
        type: 3}
      propertyPath: m_LocalPosition.z
      value: 0.023200143
      objectReference: {fileID: 0}
    - target: {fileID: 7201089989790365781, guid: b8e2ca12c6e65eb41987798f9fed7e29,
        type: 3}
      propertyPath: m_LocalPosition.x
      value: 0.06239994
      objectReference: {fileID: 0}
    - target: {fileID: 7201089989790365781, guid: b8e2ca12c6e65eb41987798f9fed7e29,
        type: 3}
      propertyPath: m_LocalPosition.y
      value: 0.03200005
      objectReference: {fileID: 0}
    - target: {fileID: 7201089989790365781, guid: b8e2ca12c6e65eb41987798f9fed7e29,
        type: 3}
      propertyPath: m_LocalPosition.z
      value: -0.000000115484
      objectReference: {fileID: 0}
    - target: {fileID: 7681906256790093507, guid: b8e2ca12c6e65eb41987798f9fed7e29,
        type: 3}
      propertyPath: m_AnchorMin.y
      value: 0
      objectReference: {fileID: 0}
    - target: {fileID: 7681906256790093507, guid: b8e2ca12c6e65eb41987798f9fed7e29,
        type: 3}
      propertyPath: m_AnchorMax.y
      value: 0
      objectReference: {fileID: 0}
    - target: {fileID: 7681906256790093507, guid: b8e2ca12c6e65eb41987798f9fed7e29,
        type: 3}
      propertyPath: m_AnchoredPosition.x
      value: 0
      objectReference: {fileID: 0}
    - target: {fileID: 7681906256790093507, guid: b8e2ca12c6e65eb41987798f9fed7e29,
        type: 3}
      propertyPath: m_AnchoredPosition.y
      value: 0
      objectReference: {fileID: 0}
    - target: {fileID: 7681906256790093507, guid: b8e2ca12c6e65eb41987798f9fed7e29,
        type: 3}
      propertyPath: m_SizeDelta.x
      value: 0
      objectReference: {fileID: 0}
    - target: {fileID: 7681906256790093507, guid: b8e2ca12c6e65eb41987798f9fed7e29,
        type: 3}
      propertyPath: m_SizeDelta.y
      value: 0
      objectReference: {fileID: 0}
    - target: {fileID: 7871924972383119924, guid: b8e2ca12c6e65eb41987798f9fed7e29,
        type: 3}
      propertyPath: m_LocalPosition.x
      value: -0.08600018
      objectReference: {fileID: 0}
    - target: {fileID: 7871924972383119924, guid: b8e2ca12c6e65eb41987798f9fed7e29,
        type: 3}
      propertyPath: m_LocalPosition.y
      value: 0.021800037
      objectReference: {fileID: 0}
    - target: {fileID: 7971823457088981010, guid: b8e2ca12c6e65eb41987798f9fed7e29,
        type: 3}
      propertyPath: m_LocalPosition.x
      value: 0.06239999
      objectReference: {fileID: 0}
    - target: {fileID: 7971823457088981010, guid: b8e2ca12c6e65eb41987798f9fed7e29,
        type: 3}
      propertyPath: m_LocalPosition.y
      value: 0.032000005
      objectReference: {fileID: 0}
    - target: {fileID: 7971823457088981010, guid: b8e2ca12c6e65eb41987798f9fed7e29,
        type: 3}
      propertyPath: m_LocalPosition.z
      value: 0.000000022584572
      objectReference: {fileID: 0}
    - target: {fileID: 8096610113566239699, guid: b8e2ca12c6e65eb41987798f9fed7e29,
        type: 3}
      propertyPath: m_LocalPosition.y
      value: 0.021799915
      objectReference: {fileID: 0}
    - target: {fileID: 8096610113566239699, guid: b8e2ca12c6e65eb41987798f9fed7e29,
        type: 3}
      propertyPath: m_LocalPosition.z
      value: -0.007299941
      objectReference: {fileID: 0}
    - target: {fileID: 8096610113610829550, guid: b8e2ca12c6e65eb41987798f9fed7e29,
        type: 3}
      propertyPath: m_LocalPosition.y
      value: 0.021799909
      objectReference: {fileID: 0}
    - target: {fileID: 8096610113610829550, guid: b8e2ca12c6e65eb41987798f9fed7e29,
        type: 3}
      propertyPath: m_LocalPosition.z
      value: -0.00729993
      objectReference: {fileID: 0}
    - target: {fileID: 8096610113692731595, guid: b8e2ca12c6e65eb41987798f9fed7e29,
        type: 3}
      propertyPath: m_LocalPosition.x
      value: -0.057400048
      objectReference: {fileID: 0}
    - target: {fileID: 8096610113692731595, guid: b8e2ca12c6e65eb41987798f9fed7e29,
        type: 3}
      propertyPath: m_LocalPosition.y
      value: 0.021800034
      objectReference: {fileID: 0}
    - target: {fileID: 8096610113692731595, guid: b8e2ca12c6e65eb41987798f9fed7e29,
        type: 3}
      propertyPath: m_LocalPosition.z
      value: -0.0073000053
      objectReference: {fileID: 0}
    - target: {fileID: 8096610114538165720, guid: b8e2ca12c6e65eb41987798f9fed7e29,
        type: 3}
      propertyPath: m_LocalPosition.x
      value: -0.057399936
      objectReference: {fileID: 0}
    - target: {fileID: 8096610114538165720, guid: b8e2ca12c6e65eb41987798f9fed7e29,
        type: 3}
      propertyPath: m_LocalPosition.y
      value: 0.021799976
      objectReference: {fileID: 0}
    - target: {fileID: 8096610114538165720, guid: b8e2ca12c6e65eb41987798f9fed7e29,
        type: 3}
      propertyPath: m_LocalPosition.z
      value: -0.007299997
      objectReference: {fileID: 0}
    - target: {fileID: 8096610114753375577, guid: b8e2ca12c6e65eb41987798f9fed7e29,
        type: 3}
      propertyPath: m_LocalPosition.x
      value: -0.057400025
      objectReference: {fileID: 0}
    - target: {fileID: 8096610114753375577, guid: b8e2ca12c6e65eb41987798f9fed7e29,
        type: 3}
      propertyPath: m_LocalPosition.y
      value: 0.0218
      objectReference: {fileID: 0}
    - target: {fileID: 8096610114753375577, guid: b8e2ca12c6e65eb41987798f9fed7e29,
        type: 3}
      propertyPath: m_LocalPosition.z
      value: -0.0072999205
      objectReference: {fileID: 0}
    - target: {fileID: 8096610114808404213, guid: b8e2ca12c6e65eb41987798f9fed7e29,
        type: 3}
      propertyPath: m_LocalPosition.x
      value: -0.057399888
      objectReference: {fileID: 0}
    - target: {fileID: 8096610114808404213, guid: b8e2ca12c6e65eb41987798f9fed7e29,
        type: 3}
      propertyPath: m_LocalPosition.y
      value: 0.021800015
      objectReference: {fileID: 0}
    - target: {fileID: 8096610114808404213, guid: b8e2ca12c6e65eb41987798f9fed7e29,
        type: 3}
      propertyPath: m_LocalPosition.z
      value: -0.0073000677
      objectReference: {fileID: 0}
    - target: {fileID: 8110993040760380184, guid: b8e2ca12c6e65eb41987798f9fed7e29,
        type: 3}
      propertyPath: m_LocalPosition.x
      value: 0.06239995
      objectReference: {fileID: 0}
    - target: {fileID: 8110993040760380184, guid: b8e2ca12c6e65eb41987798f9fed7e29,
        type: 3}
      propertyPath: m_LocalPosition.y
      value: 0.032000005
      objectReference: {fileID: 0}
    - target: {fileID: 8110993040760380184, guid: b8e2ca12c6e65eb41987798f9fed7e29,
        type: 3}
      propertyPath: m_LocalPosition.z
      value: -0.000000027939677
      objectReference: {fileID: 0}
    - target: {fileID: 8280804268388682271, guid: b8e2ca12c6e65eb41987798f9fed7e29,
        type: 3}
      propertyPath: m_LocalPosition.x
      value: 0.013899982
      objectReference: {fileID: 0}
    - target: {fileID: 8280804268388682271, guid: b8e2ca12c6e65eb41987798f9fed7e29,
        type: 3}
      propertyPath: m_LocalPosition.y
      value: 0.042400002
      objectReference: {fileID: 0}
    - target: {fileID: 8280804268388682271, guid: b8e2ca12c6e65eb41987798f9fed7e29,
        type: 3}
      propertyPath: m_LocalPosition.z
      value: 0.10459997
      objectReference: {fileID: 0}
    - target: {fileID: 8324613547080933386, guid: b8e2ca12c6e65eb41987798f9fed7e29,
        type: 3}
      propertyPath: m_AnchorMin.y
      value: 0
      objectReference: {fileID: 0}
    - target: {fileID: 8324613547080933386, guid: b8e2ca12c6e65eb41987798f9fed7e29,
        type: 3}
      propertyPath: m_AnchorMax.y
      value: 0
      objectReference: {fileID: 0}
    - target: {fileID: 8324613547080933386, guid: b8e2ca12c6e65eb41987798f9fed7e29,
        type: 3}
      propertyPath: m_AnchoredPosition.x
      value: 0
      objectReference: {fileID: 0}
    - target: {fileID: 8324613547080933386, guid: b8e2ca12c6e65eb41987798f9fed7e29,
        type: 3}
      propertyPath: m_AnchoredPosition.y
      value: 0
      objectReference: {fileID: 0}
    - target: {fileID: 8324613547080933386, guid: b8e2ca12c6e65eb41987798f9fed7e29,
        type: 3}
      propertyPath: m_SizeDelta.x
      value: 0
      objectReference: {fileID: 0}
    - target: {fileID: 8324613547080933386, guid: b8e2ca12c6e65eb41987798f9fed7e29,
        type: 3}
      propertyPath: m_SizeDelta.y
      value: 0
      objectReference: {fileID: 0}
    - target: {fileID: 8397216969747246041, guid: b8e2ca12c6e65eb41987798f9fed7e29,
        type: 3}
      propertyPath: m_LocalPosition.x
      value: -0.051200032
      objectReference: {fileID: 0}
    - target: {fileID: 8397216969747246041, guid: b8e2ca12c6e65eb41987798f9fed7e29,
        type: 3}
      propertyPath: m_LocalPosition.z
      value: -0.000000007450581
      objectReference: {fileID: 0}
    - target: {fileID: 8406634148309785203, guid: b8e2ca12c6e65eb41987798f9fed7e29,
        type: 3}
      propertyPath: m_AnchorMin.y
      value: 0
      objectReference: {fileID: 0}
    - target: {fileID: 8406634148309785203, guid: b8e2ca12c6e65eb41987798f9fed7e29,
        type: 3}
      propertyPath: m_AnchorMax.y
      value: 0
      objectReference: {fileID: 0}
    - target: {fileID: 8406634148309785203, guid: b8e2ca12c6e65eb41987798f9fed7e29,
        type: 3}
      propertyPath: m_AnchoredPosition.x
      value: 0
      objectReference: {fileID: 0}
    - target: {fileID: 8406634148309785203, guid: b8e2ca12c6e65eb41987798f9fed7e29,
        type: 3}
      propertyPath: m_AnchoredPosition.y
      value: 0
      objectReference: {fileID: 0}
    - target: {fileID: 8406634148309785203, guid: b8e2ca12c6e65eb41987798f9fed7e29,
        type: 3}
      propertyPath: m_SizeDelta.x
      value: 0
      objectReference: {fileID: 0}
    - target: {fileID: 8406634148309785203, guid: b8e2ca12c6e65eb41987798f9fed7e29,
        type: 3}
      propertyPath: m_SizeDelta.y
      value: 0
      objectReference: {fileID: 0}
    - target: {fileID: 8447504338925346354, guid: b8e2ca12c6e65eb41987798f9fed7e29,
        type: 3}
      propertyPath: m_AnchorMin.y
      value: 0
      objectReference: {fileID: 0}
    - target: {fileID: 8447504338925346354, guid: b8e2ca12c6e65eb41987798f9fed7e29,
        type: 3}
      propertyPath: m_AnchorMax.y
      value: 0
      objectReference: {fileID: 0}
    - target: {fileID: 8447504338925346354, guid: b8e2ca12c6e65eb41987798f9fed7e29,
        type: 3}
      propertyPath: m_AnchoredPosition.x
      value: 0
      objectReference: {fileID: 0}
    - target: {fileID: 8447504338925346354, guid: b8e2ca12c6e65eb41987798f9fed7e29,
        type: 3}
      propertyPath: m_AnchoredPosition.y
      value: 0
      objectReference: {fileID: 0}
    - target: {fileID: 8447504338925346354, guid: b8e2ca12c6e65eb41987798f9fed7e29,
        type: 3}
      propertyPath: m_SizeDelta.x
      value: 0
      objectReference: {fileID: 0}
    - target: {fileID: 8447504338925346354, guid: b8e2ca12c6e65eb41987798f9fed7e29,
        type: 3}
      propertyPath: m_SizeDelta.y
      value: 0
      objectReference: {fileID: 0}
    - target: {fileID: 8550900039699067869, guid: b8e2ca12c6e65eb41987798f9fed7e29,
        type: 3}
      propertyPath: m_LocalRotation.x
      value: 0.45767987
      objectReference: {fileID: 0}
    - target: {fileID: 8550900039699067869, guid: b8e2ca12c6e65eb41987798f9fed7e29,
        type: 3}
      propertyPath: m_LocalRotation.y
      value: 0.5645197
      objectReference: {fileID: 0}
    - target: {fileID: 8550900039699067869, guid: b8e2ca12c6e65eb41987798f9fed7e29,
        type: 3}
      propertyPath: m_LocalRotation.z
      value: -0.43259603
      objectReference: {fileID: 0}
    - target: {fileID: 8550900039699067869, guid: b8e2ca12c6e65eb41987798f9fed7e29,
        type: 3}
      propertyPath: m_LocalRotation.w
      value: 0.5335798
      objectReference: {fileID: 0}
    - target: {fileID: 8550900039699067869, guid: b8e2ca12c6e65eb41987798f9fed7e29,
        type: 3}
      propertyPath: m_LocalPosition.x
      value: 0.031499878
      objectReference: {fileID: 0}
    - target: {fileID: 8550900039699067869, guid: b8e2ca12c6e65eb41987798f9fed7e29,
        type: 3}
      propertyPath: m_LocalPosition.y
      value: 0.066600025
      objectReference: {fileID: 0}
    - target: {fileID: 8550900039699067869, guid: b8e2ca12c6e65eb41987798f9fed7e29,
        type: 3}
      propertyPath: m_LocalPosition.z
      value: 0.021600027
      objectReference: {fileID: 0}
    - target: {fileID: 8921110823389769966, guid: b8e2ca12c6e65eb41987798f9fed7e29,
        type: 3}
      propertyPath: m_LocalPosition.x
      value: -0.05190001
      objectReference: {fileID: 0}
    - target: {fileID: 8921110823389769966, guid: b8e2ca12c6e65eb41987798f9fed7e29,
        type: 3}
      propertyPath: m_LocalPosition.y
      value: 0.12099998
      objectReference: {fileID: 0}
    - target: {fileID: 8921110823389769966, guid: b8e2ca12c6e65eb41987798f9fed7e29,
        type: 3}
      propertyPath: m_LocalPosition.z
      value: -0.02709997
      objectReference: {fileID: 0}
    m_RemovedComponents: []
  m_SourcePrefab: {fileID: 100100000, guid: b8e2ca12c6e65eb41987798f9fed7e29, type: 3}
--- !u!1001 &1916554989
PrefabInstance:
  m_ObjectHideFlags: 0
  serializedVersion: 2
  m_Modification:
    m_TransformParent: {fileID: 0}
    m_Modifications:
    - target: {fileID: 1103198108, guid: 4cee4c304241bd342a74dcc5f266504c, type: 3}
      propertyPath: dataNumber
      value: 3
      objectReference: {fileID: 0}
    - target: {fileID: 50975053795830895, guid: 4cee4c304241bd342a74dcc5f266504c,
        type: 3}
      propertyPath: m_AnchorMin.y
      value: 0
      objectReference: {fileID: 0}
    - target: {fileID: 50975053795830895, guid: 4cee4c304241bd342a74dcc5f266504c,
        type: 3}
      propertyPath: m_AnchorMax.y
      value: 0
      objectReference: {fileID: 0}
    - target: {fileID: 50975053795830895, guid: 4cee4c304241bd342a74dcc5f266504c,
        type: 3}
      propertyPath: m_AnchoredPosition.x
      value: 0
      objectReference: {fileID: 0}
    - target: {fileID: 50975053795830895, guid: 4cee4c304241bd342a74dcc5f266504c,
        type: 3}
      propertyPath: m_AnchoredPosition.y
      value: 0
      objectReference: {fileID: 0}
    - target: {fileID: 50975053795830895, guid: 4cee4c304241bd342a74dcc5f266504c,
        type: 3}
      propertyPath: m_SizeDelta.x
      value: 0
      objectReference: {fileID: 0}
    - target: {fileID: 50975053795830895, guid: 4cee4c304241bd342a74dcc5f266504c,
        type: 3}
      propertyPath: m_SizeDelta.y
      value: 0
      objectReference: {fileID: 0}
    - target: {fileID: 50975054038341565, guid: 4cee4c304241bd342a74dcc5f266504c,
        type: 3}
      propertyPath: m_AnchorMin.y
      value: 0
      objectReference: {fileID: 0}
    - target: {fileID: 50975054038341565, guid: 4cee4c304241bd342a74dcc5f266504c,
        type: 3}
      propertyPath: m_AnchorMax.y
      value: 0
      objectReference: {fileID: 0}
    - target: {fileID: 50975054038341565, guid: 4cee4c304241bd342a74dcc5f266504c,
        type: 3}
      propertyPath: m_AnchoredPosition.x
      value: 0
      objectReference: {fileID: 0}
    - target: {fileID: 50975054038341565, guid: 4cee4c304241bd342a74dcc5f266504c,
        type: 3}
      propertyPath: m_AnchoredPosition.y
      value: 0
      objectReference: {fileID: 0}
    - target: {fileID: 50975054038341565, guid: 4cee4c304241bd342a74dcc5f266504c,
        type: 3}
      propertyPath: m_SizeDelta.x
      value: 0
      objectReference: {fileID: 0}
    - target: {fileID: 50975054038341565, guid: 4cee4c304241bd342a74dcc5f266504c,
        type: 3}
      propertyPath: m_SizeDelta.y
      value: 0
      objectReference: {fileID: 0}
    - target: {fileID: 50975054051893604, guid: 4cee4c304241bd342a74dcc5f266504c,
        type: 3}
      propertyPath: m_AnchorMin.y
      value: 0
      objectReference: {fileID: 0}
    - target: {fileID: 50975054051893604, guid: 4cee4c304241bd342a74dcc5f266504c,
        type: 3}
      propertyPath: m_AnchorMax.y
      value: 0
      objectReference: {fileID: 0}
    - target: {fileID: 50975054051893604, guid: 4cee4c304241bd342a74dcc5f266504c,
        type: 3}
      propertyPath: m_AnchoredPosition.x
      value: 0
      objectReference: {fileID: 0}
    - target: {fileID: 50975054051893604, guid: 4cee4c304241bd342a74dcc5f266504c,
        type: 3}
      propertyPath: m_AnchoredPosition.y
      value: 0
      objectReference: {fileID: 0}
    - target: {fileID: 50975054051893604, guid: 4cee4c304241bd342a74dcc5f266504c,
        type: 3}
      propertyPath: m_SizeDelta.x
      value: 0
      objectReference: {fileID: 0}
    - target: {fileID: 50975054051893604, guid: 4cee4c304241bd342a74dcc5f266504c,
        type: 3}
      propertyPath: m_SizeDelta.y
      value: 0
      objectReference: {fileID: 0}
    - target: {fileID: 50975054342086433, guid: 4cee4c304241bd342a74dcc5f266504c,
        type: 3}
      propertyPath: m_AnchorMin.y
      value: 0
      objectReference: {fileID: 0}
    - target: {fileID: 50975054342086433, guid: 4cee4c304241bd342a74dcc5f266504c,
        type: 3}
      propertyPath: m_AnchorMax.y
      value: 0
      objectReference: {fileID: 0}
    - target: {fileID: 50975054342086433, guid: 4cee4c304241bd342a74dcc5f266504c,
        type: 3}
      propertyPath: m_AnchoredPosition.x
      value: 0
      objectReference: {fileID: 0}
    - target: {fileID: 50975054342086433, guid: 4cee4c304241bd342a74dcc5f266504c,
        type: 3}
      propertyPath: m_AnchoredPosition.y
      value: 0
      objectReference: {fileID: 0}
    - target: {fileID: 50975054342086433, guid: 4cee4c304241bd342a74dcc5f266504c,
        type: 3}
      propertyPath: m_SizeDelta.x
      value: 0
      objectReference: {fileID: 0}
    - target: {fileID: 50975054342086433, guid: 4cee4c304241bd342a74dcc5f266504c,
        type: 3}
      propertyPath: m_SizeDelta.y
      value: 0
      objectReference: {fileID: 0}
    - target: {fileID: 994501971208754031, guid: 4cee4c304241bd342a74dcc5f266504c,
        type: 3}
      propertyPath: m_AnchorMin.y
      value: 0
      objectReference: {fileID: 0}
    - target: {fileID: 994501971208754031, guid: 4cee4c304241bd342a74dcc5f266504c,
        type: 3}
      propertyPath: m_AnchorMax.y
      value: 0
      objectReference: {fileID: 0}
    - target: {fileID: 994501971208754031, guid: 4cee4c304241bd342a74dcc5f266504c,
        type: 3}
      propertyPath: m_AnchoredPosition.x
      value: 0
      objectReference: {fileID: 0}
    - target: {fileID: 994501971208754031, guid: 4cee4c304241bd342a74dcc5f266504c,
        type: 3}
      propertyPath: m_AnchoredPosition.y
      value: 0
      objectReference: {fileID: 0}
    - target: {fileID: 994501971561431163, guid: 4cee4c304241bd342a74dcc5f266504c,
        type: 3}
      propertyPath: m_AnchorMin.y
      value: 0
      objectReference: {fileID: 0}
    - target: {fileID: 994501971561431163, guid: 4cee4c304241bd342a74dcc5f266504c,
        type: 3}
      propertyPath: m_AnchorMax.y
      value: 0
      objectReference: {fileID: 0}
    - target: {fileID: 994501971561431163, guid: 4cee4c304241bd342a74dcc5f266504c,
        type: 3}
      propertyPath: m_AnchoredPosition.x
      value: 0
      objectReference: {fileID: 0}
    - target: {fileID: 994501971561431163, guid: 4cee4c304241bd342a74dcc5f266504c,
        type: 3}
      propertyPath: m_AnchoredPosition.y
      value: 0
      objectReference: {fileID: 0}
    - target: {fileID: 994501972655579457, guid: 4cee4c304241bd342a74dcc5f266504c,
        type: 3}
      propertyPath: m_AnchorMin.y
      value: 0
      objectReference: {fileID: 0}
    - target: {fileID: 994501972655579457, guid: 4cee4c304241bd342a74dcc5f266504c,
        type: 3}
      propertyPath: m_AnchorMax.y
      value: 0
      objectReference: {fileID: 0}
    - target: {fileID: 994501972655579457, guid: 4cee4c304241bd342a74dcc5f266504c,
        type: 3}
      propertyPath: m_AnchoredPosition.x
      value: 0
      objectReference: {fileID: 0}
    - target: {fileID: 994501972655579457, guid: 4cee4c304241bd342a74dcc5f266504c,
        type: 3}
      propertyPath: m_AnchoredPosition.y
      value: 0
      objectReference: {fileID: 0}
    - target: {fileID: 994501972931944976, guid: 4cee4c304241bd342a74dcc5f266504c,
        type: 3}
      propertyPath: m_AnchorMin.y
      value: 0
      objectReference: {fileID: 0}
    - target: {fileID: 994501972931944976, guid: 4cee4c304241bd342a74dcc5f266504c,
        type: 3}
      propertyPath: m_AnchorMax.y
      value: 0
      objectReference: {fileID: 0}
    - target: {fileID: 994501972931944976, guid: 4cee4c304241bd342a74dcc5f266504c,
        type: 3}
      propertyPath: m_AnchoredPosition.x
      value: 0
      objectReference: {fileID: 0}
    - target: {fileID: 994501972931944976, guid: 4cee4c304241bd342a74dcc5f266504c,
        type: 3}
      propertyPath: m_AnchoredPosition.y
      value: 0
      objectReference: {fileID: 0}
    - target: {fileID: 1431855449861356151, guid: 4cee4c304241bd342a74dcc5f266504c,
        type: 3}
      propertyPath: m_AnchorMin.y
      value: 0
      objectReference: {fileID: 0}
    - target: {fileID: 1431855449861356151, guid: 4cee4c304241bd342a74dcc5f266504c,
        type: 3}
      propertyPath: m_AnchorMax.y
      value: 0
      objectReference: {fileID: 0}
    - target: {fileID: 1431855449861356151, guid: 4cee4c304241bd342a74dcc5f266504c,
        type: 3}
      propertyPath: m_AnchoredPosition.x
      value: 0
      objectReference: {fileID: 0}
    - target: {fileID: 1431855449861356151, guid: 4cee4c304241bd342a74dcc5f266504c,
        type: 3}
      propertyPath: m_AnchoredPosition.y
      value: 0
      objectReference: {fileID: 0}
    - target: {fileID: 1431855450092145160, guid: 4cee4c304241bd342a74dcc5f266504c,
        type: 3}
      propertyPath: m_AnchorMin.y
      value: 0
      objectReference: {fileID: 0}
    - target: {fileID: 1431855450092145160, guid: 4cee4c304241bd342a74dcc5f266504c,
        type: 3}
      propertyPath: m_AnchorMax.y
      value: 0
      objectReference: {fileID: 0}
    - target: {fileID: 1431855450092145160, guid: 4cee4c304241bd342a74dcc5f266504c,
        type: 3}
      propertyPath: m_AnchoredPosition.x
      value: 0
      objectReference: {fileID: 0}
    - target: {fileID: 1431855450092145160, guid: 4cee4c304241bd342a74dcc5f266504c,
        type: 3}
      propertyPath: m_AnchoredPosition.y
      value: 0
      objectReference: {fileID: 0}
    - target: {fileID: 1431855450097751254, guid: 4cee4c304241bd342a74dcc5f266504c,
        type: 3}
      propertyPath: m_AnchorMin.y
      value: 0
      objectReference: {fileID: 0}
    - target: {fileID: 1431855450097751254, guid: 4cee4c304241bd342a74dcc5f266504c,
        type: 3}
      propertyPath: m_AnchorMax.y
      value: 0
      objectReference: {fileID: 0}
    - target: {fileID: 1431855450097751254, guid: 4cee4c304241bd342a74dcc5f266504c,
        type: 3}
      propertyPath: m_AnchoredPosition.x
      value: 0
      objectReference: {fileID: 0}
    - target: {fileID: 1431855450097751254, guid: 4cee4c304241bd342a74dcc5f266504c,
        type: 3}
      propertyPath: m_AnchoredPosition.y
      value: 0
      objectReference: {fileID: 0}
    - target: {fileID: 1431855450586047895, guid: 4cee4c304241bd342a74dcc5f266504c,
        type: 3}
      propertyPath: m_AnchorMin.y
      value: 0
      objectReference: {fileID: 0}
    - target: {fileID: 1431855450586047895, guid: 4cee4c304241bd342a74dcc5f266504c,
        type: 3}
      propertyPath: m_AnchorMax.y
      value: 0
      objectReference: {fileID: 0}
    - target: {fileID: 1431855450586047895, guid: 4cee4c304241bd342a74dcc5f266504c,
        type: 3}
      propertyPath: m_AnchoredPosition.x
      value: 0
      objectReference: {fileID: 0}
    - target: {fileID: 1431855450586047895, guid: 4cee4c304241bd342a74dcc5f266504c,
        type: 3}
      propertyPath: m_AnchoredPosition.y
      value: 0
      objectReference: {fileID: 0}
    - target: {fileID: 1431855451497683588, guid: 4cee4c304241bd342a74dcc5f266504c,
        type: 3}
      propertyPath: m_AnchorMin.y
      value: 0
      objectReference: {fileID: 0}
    - target: {fileID: 1431855451497683588, guid: 4cee4c304241bd342a74dcc5f266504c,
        type: 3}
      propertyPath: m_AnchorMax.y
      value: 0
      objectReference: {fileID: 0}
    - target: {fileID: 1431855451497683588, guid: 4cee4c304241bd342a74dcc5f266504c,
        type: 3}
      propertyPath: m_AnchoredPosition.x
      value: 0
      objectReference: {fileID: 0}
    - target: {fileID: 1431855451497683588, guid: 4cee4c304241bd342a74dcc5f266504c,
        type: 3}
      propertyPath: m_AnchoredPosition.y
      value: 0
      objectReference: {fileID: 0}
    - target: {fileID: 2392157263024574678, guid: 4cee4c304241bd342a74dcc5f266504c,
        type: 3}
      propertyPath: m_AnchorMin.y
      value: 0
      objectReference: {fileID: 0}
    - target: {fileID: 2392157263024574678, guid: 4cee4c304241bd342a74dcc5f266504c,
        type: 3}
      propertyPath: m_AnchorMax.y
      value: 0
      objectReference: {fileID: 0}
    - target: {fileID: 2392157263024574678, guid: 4cee4c304241bd342a74dcc5f266504c,
        type: 3}
      propertyPath: m_AnchoredPosition.x
      value: 0
      objectReference: {fileID: 0}
    - target: {fileID: 2517635043286654558, guid: 4cee4c304241bd342a74dcc5f266504c,
        type: 3}
      propertyPath: m_AnchorMin.y
      value: 0
      objectReference: {fileID: 0}
    - target: {fileID: 2517635043286654558, guid: 4cee4c304241bd342a74dcc5f266504c,
        type: 3}
      propertyPath: m_AnchorMax.y
      value: 0
      objectReference: {fileID: 0}
    - target: {fileID: 2517635043286654558, guid: 4cee4c304241bd342a74dcc5f266504c,
        type: 3}
      propertyPath: m_AnchoredPosition.x
      value: 0
      objectReference: {fileID: 0}
    - target: {fileID: 2517635043286654558, guid: 4cee4c304241bd342a74dcc5f266504c,
        type: 3}
      propertyPath: m_AnchoredPosition.y
      value: 0
      objectReference: {fileID: 0}
    - target: {fileID: 2517635043393903099, guid: 4cee4c304241bd342a74dcc5f266504c,
        type: 3}
      propertyPath: m_AnchorMax.y
      value: 0
      objectReference: {fileID: 0}
    - target: {fileID: 2517635043393903099, guid: 4cee4c304241bd342a74dcc5f266504c,
        type: 3}
      propertyPath: m_AnchorMax.x
      value: 0
      objectReference: {fileID: 0}
    - target: {fileID: 2517635043395249057, guid: 4cee4c304241bd342a74dcc5f266504c,
        type: 3}
      propertyPath: m_AnchorMax.y
      value: 0
      objectReference: {fileID: 0}
    - target: {fileID: 2517635043395249057, guid: 4cee4c304241bd342a74dcc5f266504c,
        type: 3}
      propertyPath: m_AnchorMax.x
      value: 0
      objectReference: {fileID: 0}
    - target: {fileID: 2517635043548337012, guid: 4cee4c304241bd342a74dcc5f266504c,
        type: 3}
      propertyPath: m_AnchorMin.y
      value: 0
      objectReference: {fileID: 0}
    - target: {fileID: 2517635043548337012, guid: 4cee4c304241bd342a74dcc5f266504c,
        type: 3}
      propertyPath: m_AnchorMax.y
      value: 0
      objectReference: {fileID: 0}
    - target: {fileID: 2517635043548337012, guid: 4cee4c304241bd342a74dcc5f266504c,
        type: 3}
      propertyPath: m_AnchoredPosition.x
      value: 0
      objectReference: {fileID: 0}
    - target: {fileID: 2517635043548337012, guid: 4cee4c304241bd342a74dcc5f266504c,
        type: 3}
      propertyPath: m_AnchoredPosition.y
      value: 0
      objectReference: {fileID: 0}
    - target: {fileID: 2517635043740004411, guid: 4cee4c304241bd342a74dcc5f266504c,
        type: 3}
      propertyPath: m_AnchorMin.y
      value: 0
      objectReference: {fileID: 0}
    - target: {fileID: 2517635043740004411, guid: 4cee4c304241bd342a74dcc5f266504c,
        type: 3}
      propertyPath: m_AnchorMax.y
      value: 0
      objectReference: {fileID: 0}
    - target: {fileID: 2517635043740004411, guid: 4cee4c304241bd342a74dcc5f266504c,
        type: 3}
      propertyPath: m_AnchoredPosition.x
      value: 0
      objectReference: {fileID: 0}
    - target: {fileID: 2517635043740004411, guid: 4cee4c304241bd342a74dcc5f266504c,
        type: 3}
      propertyPath: m_AnchoredPosition.y
      value: 0
      objectReference: {fileID: 0}
    - target: {fileID: 2517635043820024841, guid: 4cee4c304241bd342a74dcc5f266504c,
        type: 3}
      propertyPath: m_AnchorMax.y
      value: 0
      objectReference: {fileID: 0}
    - target: {fileID: 2517635043820024841, guid: 4cee4c304241bd342a74dcc5f266504c,
        type: 3}
      propertyPath: m_AnchorMin.x
      value: 0
      objectReference: {fileID: 0}
    - target: {fileID: 2517635043820024841, guid: 4cee4c304241bd342a74dcc5f266504c,
        type: 3}
      propertyPath: m_AnchorMax.x
      value: 0
      objectReference: {fileID: 0}
    - target: {fileID: 2517635043983464402, guid: 4cee4c304241bd342a74dcc5f266504c,
        type: 3}
      propertyPath: m_AnchorMax.y
      value: 0
      objectReference: {fileID: 0}
    - target: {fileID: 2517635043983464402, guid: 4cee4c304241bd342a74dcc5f266504c,
        type: 3}
      propertyPath: m_AnchorMin.x
      value: 0
      objectReference: {fileID: 0}
    - target: {fileID: 2517635043983464402, guid: 4cee4c304241bd342a74dcc5f266504c,
        type: 3}
      propertyPath: m_AnchorMax.x
      value: 0
      objectReference: {fileID: 0}
    - target: {fileID: 2517635044018788767, guid: 4cee4c304241bd342a74dcc5f266504c,
        type: 3}
      propertyPath: m_AnchorMin.y
      value: 0
      objectReference: {fileID: 0}
    - target: {fileID: 2517635044018788767, guid: 4cee4c304241bd342a74dcc5f266504c,
        type: 3}
      propertyPath: m_AnchorMax.y
      value: 0
      objectReference: {fileID: 0}
    - target: {fileID: 2517635044018788767, guid: 4cee4c304241bd342a74dcc5f266504c,
        type: 3}
      propertyPath: m_AnchoredPosition.x
      value: 0
      objectReference: {fileID: 0}
    - target: {fileID: 2517635044018788767, guid: 4cee4c304241bd342a74dcc5f266504c,
        type: 3}
      propertyPath: m_AnchoredPosition.y
      value: 0
      objectReference: {fileID: 0}
    - target: {fileID: 2517635044022011716, guid: 4cee4c304241bd342a74dcc5f266504c,
        type: 3}
      propertyPath: m_AnchorMin.y
      value: 0
      objectReference: {fileID: 0}
    - target: {fileID: 2517635044022011716, guid: 4cee4c304241bd342a74dcc5f266504c,
        type: 3}
      propertyPath: m_AnchorMax.y
      value: 0
      objectReference: {fileID: 0}
    - target: {fileID: 2517635044022011716, guid: 4cee4c304241bd342a74dcc5f266504c,
        type: 3}
      propertyPath: m_AnchoredPosition.x
      value: 0
      objectReference: {fileID: 0}
    - target: {fileID: 2517635044022011716, guid: 4cee4c304241bd342a74dcc5f266504c,
        type: 3}
      propertyPath: m_AnchoredPosition.y
      value: 0
      objectReference: {fileID: 0}
    - target: {fileID: 2517635044485014209, guid: 4cee4c304241bd342a74dcc5f266504c,
        type: 3}
      propertyPath: m_AnchorMax.y
      value: 0
      objectReference: {fileID: 0}
    - target: {fileID: 2517635044485014209, guid: 4cee4c304241bd342a74dcc5f266504c,
        type: 3}
      propertyPath: m_AnchorMin.x
      value: 0
      objectReference: {fileID: 0}
    - target: {fileID: 2517635044485014209, guid: 4cee4c304241bd342a74dcc5f266504c,
        type: 3}
      propertyPath: m_AnchorMax.x
      value: 0
      objectReference: {fileID: 0}
    - target: {fileID: 2517635044684953175, guid: 4cee4c304241bd342a74dcc5f266504c,
        type: 3}
      propertyPath: m_AnchorMax.y
      value: 0
      objectReference: {fileID: 0}
    - target: {fileID: 2517635044684953175, guid: 4cee4c304241bd342a74dcc5f266504c,
        type: 3}
      propertyPath: m_AnchorMax.x
      value: 0
      objectReference: {fileID: 0}
    - target: {fileID: 3695512857551515231, guid: 4cee4c304241bd342a74dcc5f266504c,
        type: 3}
      propertyPath: m_AnchorMin.y
      value: 0
      objectReference: {fileID: 0}
    - target: {fileID: 3695512857551515231, guid: 4cee4c304241bd342a74dcc5f266504c,
        type: 3}
      propertyPath: m_AnchorMax.y
      value: 0
      objectReference: {fileID: 0}
    - target: {fileID: 3695512857551515231, guid: 4cee4c304241bd342a74dcc5f266504c,
        type: 3}
      propertyPath: m_AnchoredPosition.x
      value: 0
      objectReference: {fileID: 0}
    - target: {fileID: 3695512857551515231, guid: 4cee4c304241bd342a74dcc5f266504c,
        type: 3}
      propertyPath: m_AnchoredPosition.y
      value: 0
      objectReference: {fileID: 0}
    - target: {fileID: 4246302132453732637, guid: 4cee4c304241bd342a74dcc5f266504c,
        type: 3}
      propertyPath: m_AnchorMin.y
      value: 0
      objectReference: {fileID: 0}
    - target: {fileID: 4246302132453732637, guid: 4cee4c304241bd342a74dcc5f266504c,
        type: 3}
      propertyPath: m_AnchorMax.y
      value: 0
      objectReference: {fileID: 0}
    - target: {fileID: 4246302132453732637, guid: 4cee4c304241bd342a74dcc5f266504c,
        type: 3}
      propertyPath: m_AnchoredPosition.x
      value: 0
      objectReference: {fileID: 0}
    - target: {fileID: 4246302132453732637, guid: 4cee4c304241bd342a74dcc5f266504c,
        type: 3}
      propertyPath: m_AnchoredPosition.y
      value: 0
      objectReference: {fileID: 0}
    - target: {fileID: 5060741895375325649, guid: 4cee4c304241bd342a74dcc5f266504c,
        type: 3}
      propertyPath: m_AnchorMin.y
      value: 0
      objectReference: {fileID: 0}
    - target: {fileID: 5060741895375325649, guid: 4cee4c304241bd342a74dcc5f266504c,
        type: 3}
      propertyPath: m_AnchorMax.y
      value: 0
      objectReference: {fileID: 0}
    - target: {fileID: 5060741895375325649, guid: 4cee4c304241bd342a74dcc5f266504c,
        type: 3}
      propertyPath: m_AnchoredPosition.x
      value: 0
      objectReference: {fileID: 0}
    - target: {fileID: 5060741895375325649, guid: 4cee4c304241bd342a74dcc5f266504c,
        type: 3}
      propertyPath: m_AnchoredPosition.y
      value: 0
      objectReference: {fileID: 0}
    - target: {fileID: 6135734391182436668, guid: 4cee4c304241bd342a74dcc5f266504c,
        type: 3}
      propertyPath: m_AnchorMin.y
      value: 0
      objectReference: {fileID: 0}
    - target: {fileID: 6135734391182436668, guid: 4cee4c304241bd342a74dcc5f266504c,
        type: 3}
      propertyPath: m_AnchorMax.y
      value: 0
      objectReference: {fileID: 0}
    - target: {fileID: 6135734391182436668, guid: 4cee4c304241bd342a74dcc5f266504c,
        type: 3}
      propertyPath: m_AnchoredPosition.x
      value: 0
      objectReference: {fileID: 0}
    - target: {fileID: 6135734391182436668, guid: 4cee4c304241bd342a74dcc5f266504c,
        type: 3}
      propertyPath: m_AnchoredPosition.y
      value: 0
      objectReference: {fileID: 0}
    - target: {fileID: 6135734391353771887, guid: 4cee4c304241bd342a74dcc5f266504c,
        type: 3}
      propertyPath: m_AnchorMin.y
      value: 0
      objectReference: {fileID: 0}
    - target: {fileID: 6135734391353771887, guid: 4cee4c304241bd342a74dcc5f266504c,
        type: 3}
      propertyPath: m_AnchorMax.y
      value: 0
      objectReference: {fileID: 0}
    - target: {fileID: 6135734391353771887, guid: 4cee4c304241bd342a74dcc5f266504c,
        type: 3}
      propertyPath: m_AnchoredPosition.x
      value: 0
      objectReference: {fileID: 0}
    - target: {fileID: 6135734391353771887, guid: 4cee4c304241bd342a74dcc5f266504c,
        type: 3}
      propertyPath: m_AnchoredPosition.y
      value: 0
      objectReference: {fileID: 0}
    - target: {fileID: 6135734391616623339, guid: 4cee4c304241bd342a74dcc5f266504c,
        type: 3}
      propertyPath: m_AnchorMin.y
      value: 0
      objectReference: {fileID: 0}
    - target: {fileID: 6135734391616623339, guid: 4cee4c304241bd342a74dcc5f266504c,
        type: 3}
      propertyPath: m_AnchorMax.y
      value: 0
      objectReference: {fileID: 0}
    - target: {fileID: 6135734391616623339, guid: 4cee4c304241bd342a74dcc5f266504c,
        type: 3}
      propertyPath: m_AnchoredPosition.x
      value: 0
      objectReference: {fileID: 0}
    - target: {fileID: 6135734391616623339, guid: 4cee4c304241bd342a74dcc5f266504c,
        type: 3}
      propertyPath: m_AnchoredPosition.y
      value: 0
      objectReference: {fileID: 0}
    - target: {fileID: 6135734392104581641, guid: 4cee4c304241bd342a74dcc5f266504c,
        type: 3}
      propertyPath: m_AnchorMin.y
      value: 0
      objectReference: {fileID: 0}
    - target: {fileID: 6135734392104581641, guid: 4cee4c304241bd342a74dcc5f266504c,
        type: 3}
      propertyPath: m_AnchorMax.y
      value: 0
      objectReference: {fileID: 0}
    - target: {fileID: 6135734392104581641, guid: 4cee4c304241bd342a74dcc5f266504c,
        type: 3}
      propertyPath: m_AnchoredPosition.x
      value: 0
      objectReference: {fileID: 0}
    - target: {fileID: 6135734392104581641, guid: 4cee4c304241bd342a74dcc5f266504c,
        type: 3}
      propertyPath: m_AnchoredPosition.y
      value: 0
      objectReference: {fileID: 0}
    - target: {fileID: 6226403902795992488, guid: 4cee4c304241bd342a74dcc5f266504c,
        type: 3}
      propertyPath: m_LocalPosition.x
      value: 8.104
      objectReference: {fileID: 0}
    - target: {fileID: 6226403902795992488, guid: 4cee4c304241bd342a74dcc5f266504c,
        type: 3}
      propertyPath: m_LocalPosition.y
      value: 0.112
      objectReference: {fileID: 0}
    - target: {fileID: 6226403902795992488, guid: 4cee4c304241bd342a74dcc5f266504c,
        type: 3}
      propertyPath: m_LocalPosition.z
      value: -0.592
      objectReference: {fileID: 0}
    - target: {fileID: 6226403902795992488, guid: 4cee4c304241bd342a74dcc5f266504c,
        type: 3}
      propertyPath: m_LocalRotation.x
      value: 0
      objectReference: {fileID: 0}
    - target: {fileID: 6226403902795992488, guid: 4cee4c304241bd342a74dcc5f266504c,
        type: 3}
      propertyPath: m_LocalRotation.y
      value: -0.33660227
      objectReference: {fileID: 0}
    - target: {fileID: 6226403902795992488, guid: 4cee4c304241bd342a74dcc5f266504c,
        type: 3}
      propertyPath: m_LocalRotation.z
      value: 0
      objectReference: {fileID: 0}
    - target: {fileID: 6226403902795992488, guid: 4cee4c304241bd342a74dcc5f266504c,
        type: 3}
      propertyPath: m_LocalRotation.w
      value: 0.94164693
      objectReference: {fileID: 0}
    - target: {fileID: 6226403902795992488, guid: 4cee4c304241bd342a74dcc5f266504c,
        type: 3}
      propertyPath: m_RootOrder
      value: 0
      objectReference: {fileID: 0}
    - target: {fileID: 6226403902795992488, guid: 4cee4c304241bd342a74dcc5f266504c,
        type: 3}
      propertyPath: m_LocalEulerAnglesHint.x
      value: 0
      objectReference: {fileID: 0}
    - target: {fileID: 6226403902795992488, guid: 4cee4c304241bd342a74dcc5f266504c,
        type: 3}
      propertyPath: m_LocalEulerAnglesHint.y
      value: -39.34
      objectReference: {fileID: 0}
    - target: {fileID: 6226403902795992488, guid: 4cee4c304241bd342a74dcc5f266504c,
        type: 3}
      propertyPath: m_LocalEulerAnglesHint.z
      value: 0
      objectReference: {fileID: 0}
    - target: {fileID: 6226403902795992490, guid: 4cee4c304241bd342a74dcc5f266504c,
        type: 3}
      propertyPath: m_Name
      value: Player
      objectReference: {fileID: 0}
    - target: {fileID: 6970756474323705679, guid: 4cee4c304241bd342a74dcc5f266504c,
        type: 3}
      propertyPath: m_AnchorMin.y
      value: 0
      objectReference: {fileID: 0}
    - target: {fileID: 6970756474323705679, guid: 4cee4c304241bd342a74dcc5f266504c,
        type: 3}
      propertyPath: m_AnchorMax.y
      value: 0
      objectReference: {fileID: 0}
    - target: {fileID: 6970756474323705679, guid: 4cee4c304241bd342a74dcc5f266504c,
        type: 3}
      propertyPath: m_AnchoredPosition.x
      value: 0
      objectReference: {fileID: 0}
    - target: {fileID: 6970756474323705679, guid: 4cee4c304241bd342a74dcc5f266504c,
        type: 3}
      propertyPath: m_AnchoredPosition.y
      value: 0
      objectReference: {fileID: 0}
    - target: {fileID: 7523871956909087290, guid: 4cee4c304241bd342a74dcc5f266504c,
        type: 3}
      propertyPath: m_AnchorMin.y
      value: 0
      objectReference: {fileID: 0}
    - target: {fileID: 7523871956909087290, guid: 4cee4c304241bd342a74dcc5f266504c,
        type: 3}
      propertyPath: m_AnchorMax.y
      value: 0
      objectReference: {fileID: 0}
    - target: {fileID: 7523871956909087290, guid: 4cee4c304241bd342a74dcc5f266504c,
        type: 3}
      propertyPath: m_AnchoredPosition.x
      value: 0
      objectReference: {fileID: 0}
    - target: {fileID: 7523871956909087290, guid: 4cee4c304241bd342a74dcc5f266504c,
        type: 3}
      propertyPath: m_AnchoredPosition.y
      value: 0
      objectReference: {fileID: 0}
    - target: {fileID: 7800086058383244066, guid: 4cee4c304241bd342a74dcc5f266504c,
        type: 3}
      propertyPath: m_AnchorMin.y
      value: 0
      objectReference: {fileID: 0}
    - target: {fileID: 7800086058383244066, guid: 4cee4c304241bd342a74dcc5f266504c,
        type: 3}
      propertyPath: m_AnchorMax.y
      value: 0
      objectReference: {fileID: 0}
    - target: {fileID: 7800086058383244066, guid: 4cee4c304241bd342a74dcc5f266504c,
        type: 3}
      propertyPath: m_AnchoredPosition.x
      value: 0
      objectReference: {fileID: 0}
    - target: {fileID: 7800086058383244066, guid: 4cee4c304241bd342a74dcc5f266504c,
        type: 3}
      propertyPath: m_AnchoredPosition.y
      value: 0
      objectReference: {fileID: 0}
    - target: {fileID: 7800086058393717751, guid: 4cee4c304241bd342a74dcc5f266504c,
        type: 3}
      propertyPath: m_AnchorMax.x
      value: 0
      objectReference: {fileID: 0}
    - target: {fileID: 7800086058393717751, guid: 4cee4c304241bd342a74dcc5f266504c,
        type: 3}
      propertyPath: m_AnchorMax.y
      value: 0
      objectReference: {fileID: 0}
    - target: {fileID: 7800086058397299117, guid: 4cee4c304241bd342a74dcc5f266504c,
        type: 3}
      propertyPath: m_AnchorMax.x
      value: 0
      objectReference: {fileID: 0}
    - target: {fileID: 7800086058397299117, guid: 4cee4c304241bd342a74dcc5f266504c,
        type: 3}
      propertyPath: m_AnchorMax.y
      value: 0
      objectReference: {fileID: 0}
    - target: {fileID: 7800086058587936877, guid: 4cee4c304241bd342a74dcc5f266504c,
        type: 3}
      propertyPath: m_AnchorMin.y
      value: 0
      objectReference: {fileID: 0}
    - target: {fileID: 7800086058587936877, guid: 4cee4c304241bd342a74dcc5f266504c,
        type: 3}
      propertyPath: m_AnchorMax.y
      value: 0
      objectReference: {fileID: 0}
    - target: {fileID: 7800086058587936877, guid: 4cee4c304241bd342a74dcc5f266504c,
        type: 3}
      propertyPath: m_AnchoredPosition.x
      value: 0
      objectReference: {fileID: 0}
    - target: {fileID: 7800086058587936877, guid: 4cee4c304241bd342a74dcc5f266504c,
        type: 3}
      propertyPath: m_AnchoredPosition.y
      value: 0
      objectReference: {fileID: 0}
    - target: {fileID: 7800086058650655839, guid: 4cee4c304241bd342a74dcc5f266504c,
        type: 3}
      propertyPath: m_AnchorMin.x
      value: 0
      objectReference: {fileID: 0}
    - target: {fileID: 7800086058650655839, guid: 4cee4c304241bd342a74dcc5f266504c,
        type: 3}
      propertyPath: m_AnchorMax.x
      value: 0
      objectReference: {fileID: 0}
    - target: {fileID: 7800086058650655839, guid: 4cee4c304241bd342a74dcc5f266504c,
        type: 3}
      propertyPath: m_AnchorMax.y
      value: 0
      objectReference: {fileID: 0}
    - target: {fileID: 7800086059587750551, guid: 4cee4c304241bd342a74dcc5f266504c,
        type: 3}
      propertyPath: m_AnchorMin.x
      value: 0
      objectReference: {fileID: 0}
    - target: {fileID: 7800086059587750551, guid: 4cee4c304241bd342a74dcc5f266504c,
        type: 3}
      propertyPath: m_AnchorMax.x
      value: 0
      objectReference: {fileID: 0}
    - target: {fileID: 7800086059587750551, guid: 4cee4c304241bd342a74dcc5f266504c,
        type: 3}
      propertyPath: m_AnchorMax.y
      value: 0
      objectReference: {fileID: 0}
    - target: {fileID: 7800086059788508673, guid: 4cee4c304241bd342a74dcc5f266504c,
        type: 3}
      propertyPath: m_AnchorMax.x
      value: 0
      objectReference: {fileID: 0}
    - target: {fileID: 7800086059788508673, guid: 4cee4c304241bd342a74dcc5f266504c,
        type: 3}
      propertyPath: m_AnchorMax.y
      value: 0
      objectReference: {fileID: 0}
    - target: {fileID: 7800086059914571538, guid: 4cee4c304241bd342a74dcc5f266504c,
        type: 3}
      propertyPath: m_AnchorMin.y
      value: 0
      objectReference: {fileID: 0}
    - target: {fileID: 7800086059914571538, guid: 4cee4c304241bd342a74dcc5f266504c,
        type: 3}
      propertyPath: m_AnchorMax.y
      value: 0
      objectReference: {fileID: 0}
    - target: {fileID: 7800086059914571538, guid: 4cee4c304241bd342a74dcc5f266504c,
        type: 3}
      propertyPath: m_AnchoredPosition.x
      value: 0
      objectReference: {fileID: 0}
    - target: {fileID: 7800086059914571538, guid: 4cee4c304241bd342a74dcc5f266504c,
        type: 3}
      propertyPath: m_AnchoredPosition.y
      value: 0
      objectReference: {fileID: 0}
    - target: {fileID: 7800086060089442180, guid: 4cee4c304241bd342a74dcc5f266504c,
        type: 3}
      propertyPath: m_AnchorMin.x
      value: 0
      objectReference: {fileID: 0}
    - target: {fileID: 7800086060089442180, guid: 4cee4c304241bd342a74dcc5f266504c,
        type: 3}
      propertyPath: m_AnchorMax.x
      value: 0
      objectReference: {fileID: 0}
    - target: {fileID: 7800086060089442180, guid: 4cee4c304241bd342a74dcc5f266504c,
        type: 3}
      propertyPath: m_AnchorMax.y
      value: 0
      objectReference: {fileID: 0}
    - target: {fileID: 8055050769826719642, guid: 4cee4c304241bd342a74dcc5f266504c,
        type: 3}
      propertyPath: m_AnchorMin.y
      value: 0
      objectReference: {fileID: 0}
    - target: {fileID: 8055050769826719642, guid: 4cee4c304241bd342a74dcc5f266504c,
        type: 3}
      propertyPath: m_AnchorMax.y
      value: 0
      objectReference: {fileID: 0}
    - target: {fileID: 8055050769826719642, guid: 4cee4c304241bd342a74dcc5f266504c,
        type: 3}
      propertyPath: m_AnchoredPosition.x
      value: 0
      objectReference: {fileID: 0}
    - target: {fileID: 8055050769826719642, guid: 4cee4c304241bd342a74dcc5f266504c,
        type: 3}
      propertyPath: m_AnchoredPosition.y
      value: 0
      objectReference: {fileID: 0}
    - target: {fileID: 8606555453371005105, guid: 4cee4c304241bd342a74dcc5f266504c,
        type: 3}
      propertyPath: m_AnchorMin.y
      value: 0
      objectReference: {fileID: 0}
    - target: {fileID: 8606555453371005105, guid: 4cee4c304241bd342a74dcc5f266504c,
        type: 3}
      propertyPath: m_AnchorMax.y
      value: 0
      objectReference: {fileID: 0}
    - target: {fileID: 8606555453371005105, guid: 4cee4c304241bd342a74dcc5f266504c,
        type: 3}
      propertyPath: m_AnchoredPosition.x
      value: 0
      objectReference: {fileID: 0}
    - target: {fileID: 8606555453371005105, guid: 4cee4c304241bd342a74dcc5f266504c,
        type: 3}
      propertyPath: m_AnchoredPosition.y
      value: 0
      objectReference: {fileID: 0}
    - target: {fileID: 8840039214991420865, guid: 4cee4c304241bd342a74dcc5f266504c,
        type: 3}
      propertyPath: m_AnchorMin.y
      value: 0
      objectReference: {fileID: 0}
    - target: {fileID: 8840039214991420865, guid: 4cee4c304241bd342a74dcc5f266504c,
        type: 3}
      propertyPath: m_AnchorMax.y
      value: 0
      objectReference: {fileID: 0}
    - target: {fileID: 8840039214991420865, guid: 4cee4c304241bd342a74dcc5f266504c,
        type: 3}
      propertyPath: m_AnchoredPosition.x
      value: 0
      objectReference: {fileID: 0}
    - target: {fileID: 8840039214991420865, guid: 4cee4c304241bd342a74dcc5f266504c,
        type: 3}
      propertyPath: m_AnchoredPosition.y
      value: 0
      objectReference: {fileID: 0}
    - target: {fileID: 9139031258284517363, guid: 4cee4c304241bd342a74dcc5f266504c,
        type: 3}
      propertyPath: m_AnchorMin.y
      value: 0
      objectReference: {fileID: 0}
    - target: {fileID: 9139031258284517363, guid: 4cee4c304241bd342a74dcc5f266504c,
        type: 3}
      propertyPath: m_AnchorMax.y
      value: 0
      objectReference: {fileID: 0}
    - target: {fileID: 9139031258284517363, guid: 4cee4c304241bd342a74dcc5f266504c,
        type: 3}
      propertyPath: m_AnchoredPosition.x
      value: 0
      objectReference: {fileID: 0}
    - target: {fileID: 9139031258284517363, guid: 4cee4c304241bd342a74dcc5f266504c,
        type: 3}
      propertyPath: m_AnchoredPosition.y
      value: 0
      objectReference: {fileID: 0}
    m_RemovedComponents: []
  m_SourcePrefab: {fileID: 100100000, guid: 4cee4c304241bd342a74dcc5f266504c, type: 3}
