%YAML 1.1
%TAG !u! tag:unity3d.com,2011:
--- !u!65 &3349055505069765546
BoxCollider:
  m_ObjectHideFlags: 0
  m_CorrespondingSourceObject: {fileID: 0}
  m_PrefabInstance: {fileID: 0}
  m_PrefabAsset: {fileID: 0}
  m_GameObject: {fileID: 8397494491525887111}
  m_Material: {fileID: 0}
  m_IsTrigger: 0
  m_Enabled: 1
  serializedVersion: 2
  m_Size: {x: 0.07681666, y: 0.007851782, z: 0.15782084}
  m_Center: {x: 0, y: 0.0038299034, z: 0}
--- !u!1001 &4981179658143203736
PrefabInstance:
  m_ObjectHideFlags: 0
  serializedVersion: 2
  m_Modification:
    m_TransformParent: {fileID: 0}
    m_Modifications:
    - target: {fileID: 247130475289630181, guid: 7e8ab9f2ce99ac442a350a3f7dff2fd7,
        type: 3}
      propertyPath: m_LocalRotation.y
      value: 0.21583547
      objectReference: {fileID: 0}
    - target: {fileID: 247130475289630181, guid: 7e8ab9f2ce99ac442a350a3f7dff2fd7,
        type: 3}
      propertyPath: m_LocalRotation.z
      value: 0.6461541
      objectReference: {fileID: 0}
    - target: {fileID: 247130475289630181, guid: 7e8ab9f2ce99ac442a350a3f7dff2fd7,
        type: 3}
      propertyPath: m_LocalRotation.w
      value: 0.70480156
      objectReference: {fileID: 0}
    - target: {fileID: 247130475289630181, guid: 7e8ab9f2ce99ac442a350a3f7dff2fd7,
        type: 3}
      propertyPath: m_LocalPosition.y
      value: -0.0362
      objectReference: {fileID: 0}
    - target: {fileID: 247130475289630181, guid: 7e8ab9f2ce99ac442a350a3f7dff2fd7,
        type: 3}
      propertyPath: m_LocalRotation.x
      value: 0.19787553
      objectReference: {fileID: 0}
    - target: {fileID: 247130475289630181, guid: 7e8ab9f2ce99ac442a350a3f7dff2fd7,
        type: 3}
      propertyPath: m_LocalPosition.z
      value: 0.0063
      objectReference: {fileID: 0}
    - target: {fileID: 247130475289630181, guid: 7e8ab9f2ce99ac442a350a3f7dff2fd7,
        type: 3}
      propertyPath: m_LocalPosition.x
      value: -0.0321
      objectReference: {fileID: 0}
    - target: {fileID: 511988847904756026, guid: 7e8ab9f2ce99ac442a350a3f7dff2fd7,
        type: 3}
      propertyPath: isUIObject
      value: 1
      objectReference: {fileID: 0}
    - target: {fileID: 511988847904756026, guid: 7e8ab9f2ce99ac442a350a3f7dff2fd7,
        type: 3}
      propertyPath: grabAnimation
      value: 
      objectReference: {fileID: -5042207190452277397, guid: 36d9236279b1dea4caccb6a36e5d54df,
        type: 3}
    - target: {fileID: 1006593182492179401, guid: 7e8ab9f2ce99ac442a350a3f7dff2fd7,
        type: 3}
      propertyPath: m_LocalPosition.z
      value: 0
      objectReference: {fileID: 0}
    - target: {fileID: 1006593182492179401, guid: 7e8ab9f2ce99ac442a350a3f7dff2fd7,
        type: 3}
      propertyPath: m_LocalRotation.x
      value: 0.3535534
      objectReference: {fileID: 0}
    - target: {fileID: 1006593182492179401, guid: 7e8ab9f2ce99ac442a350a3f7dff2fd7,
        type: 3}
      propertyPath: m_LocalRotation.w
      value: 0.64085644
      objectReference: {fileID: 0}
    - target: {fileID: 1006593182492179401, guid: 7e8ab9f2ce99ac442a350a3f7dff2fd7,
        type: 3}
      propertyPath: m_LocalEulerAnglesHint.x
      value: 5
      objectReference: {fileID: 0}
    - target: {fileID: 1006593182492179401, guid: 7e8ab9f2ce99ac442a350a3f7dff2fd7,
        type: 3}
      propertyPath: m_LocalRotation.y
      value: -0.29883623
      objectReference: {fileID: 0}
    - target: {fileID: 1006593182492179401, guid: 7e8ab9f2ce99ac442a350a3f7dff2fd7,
        type: 3}
      propertyPath: m_LocalRotation.z
      value: -0.61237246
      objectReference: {fileID: 0}
    - target: {fileID: 1006593182492179401, guid: 7e8ab9f2ce99ac442a350a3f7dff2fd7,
        type: 3}
      propertyPath: m_LocalEulerAnglesHint.z
      value: -90
      objectReference: {fileID: 0}
    - target: {fileID: 1006593182492179401, guid: 7e8ab9f2ce99ac442a350a3f7dff2fd7,
        type: 3}
      propertyPath: m_LocalPosition.x
      value: 0.02
      objectReference: {fileID: 0}
    - target: {fileID: 1006593182492179401, guid: 7e8ab9f2ce99ac442a350a3f7dff2fd7,
        type: 3}
      propertyPath: m_LocalPosition.y
      value: -0.03
      objectReference: {fileID: 0}
    - target: {fileID: 1006593182492179401, guid: 7e8ab9f2ce99ac442a350a3f7dff2fd7,
        type: 3}
      propertyPath: m_LocalEulerAnglesHint.y
      value: -55
      objectReference: {fileID: 0}
    - target: {fileID: 1036264277304047954, guid: 7e8ab9f2ce99ac442a350a3f7dff2fd7,
        type: 3}
      propertyPath: m_OnSelectEntered.m_PersistentCalls.m_Calls.Array.size
      value: 4
      objectReference: {fileID: 0}
    - target: {fileID: 1036264277304047954, guid: 7e8ab9f2ce99ac442a350a3f7dff2fd7,
        type: 3}
      propertyPath: m_OnSelectExited.m_PersistentCalls.m_Calls.Array.size
      value: 3
      objectReference: {fileID: 0}
    - target: {fileID: 1036264277304047954, guid: 7e8ab9f2ce99ac442a350a3f7dff2fd7,
        type: 3}
      propertyPath: m_OnSelectEntered.m_PersistentCalls.m_Calls.Array.data[3].m_Mode
      value: 1
      objectReference: {fileID: 0}
    - target: {fileID: 1036264277304047954, guid: 7e8ab9f2ce99ac442a350a3f7dff2fd7,
        type: 3}
      propertyPath: m_OnSelectEntered.m_PersistentCalls.m_Calls.Array.data[3].m_Arguments.m_BoolArgument
      value: 1
      objectReference: {fileID: 0}
    - target: {fileID: 1036264277304047954, guid: 7e8ab9f2ce99ac442a350a3f7dff2fd7,
        type: 3}
      propertyPath: m_OnSelectEntered.m_PersistentCalls.m_Calls.Array.data[3].m_CallState
      value: 2
      objectReference: {fileID: 0}
    - target: {fileID: 1036264277304047954, guid: 7e8ab9f2ce99ac442a350a3f7dff2fd7,
        type: 3}
      propertyPath: m_OnSelectEntered.m_PersistentCalls.m_Calls.Array.data[3].m_Target
      value: 
      objectReference: {fileID: 40061141}
    - target: {fileID: 1036264277304047954, guid: 7e8ab9f2ce99ac442a350a3f7dff2fd7,
        type: 3}
      propertyPath: m_OnSelectEntered.m_PersistentCalls.m_Calls.Array.data[3].m_MethodName
      value: ToggleUI
      objectReference: {fileID: 0}
    - target: {fileID: 1036264277304047954, guid: 7e8ab9f2ce99ac442a350a3f7dff2fd7,
        type: 3}
      propertyPath: m_OnSelectEntered.m_PersistentCalls.m_Calls.Array.data[3].m_Arguments.m_ObjectArgumentAssemblyTypeName
      value: UnityEngine.Object, UnityEngine
      objectReference: {fileID: 0}
    - target: {fileID: 1036264277304047954, guid: 7e8ab9f2ce99ac442a350a3f7dff2fd7,
        type: 3}
      propertyPath: m_OnSelectExited.m_PersistentCalls.m_Calls.Array.data[2].m_Mode
      value: 1
      objectReference: {fileID: 0}
    - target: {fileID: 1036264277304047954, guid: 7e8ab9f2ce99ac442a350a3f7dff2fd7,
        type: 3}
      propertyPath: m_OnSelectExited.m_PersistentCalls.m_Calls.Array.data[2].m_CallState
      value: 2
      objectReference: {fileID: 0}
    - target: {fileID: 1036264277304047954, guid: 7e8ab9f2ce99ac442a350a3f7dff2fd7,
        type: 3}
      propertyPath: m_OnSelectExited.m_PersistentCalls.m_Calls.Array.data[2].m_Target
      value: 
      objectReference: {fileID: 40061141}
    - target: {fileID: 1036264277304047954, guid: 7e8ab9f2ce99ac442a350a3f7dff2fd7,
        type: 3}
      propertyPath: m_OnSelectExited.m_PersistentCalls.m_Calls.Array.data[2].m_MethodName
      value: ToggleUI
      objectReference: {fileID: 0}
    - target: {fileID: 1036264277304047954, guid: 7e8ab9f2ce99ac442a350a3f7dff2fd7,
        type: 3}
      propertyPath: m_OnSelectExited.m_PersistentCalls.m_Calls.Array.data[2].m_Arguments.m_ObjectArgumentAssemblyTypeName
      value: UnityEngine.Object, UnityEngine
      objectReference: {fileID: 0}
    - target: {fileID: 1246011827083598174, guid: 7e8ab9f2ce99ac442a350a3f7dff2fd7,
        type: 3}
      propertyPath: m_Layer
      value: 22
      objectReference: {fileID: 0}
    - target: {fileID: 1297981651994253288, guid: 7e8ab9f2ce99ac442a350a3f7dff2fd7,
        type: 3}
      propertyPath: m_Layer
      value: 22
      objectReference: {fileID: 0}
    - target: {fileID: 2431899516660853680, guid: 7e8ab9f2ce99ac442a350a3f7dff2fd7,
        type: 3}
      propertyPath: m_Layer
      value: 22
      objectReference: {fileID: 0}
    - target: {fileID: 3180749597132209238, guid: 7e8ab9f2ce99ac442a350a3f7dff2fd7,
        type: 3}
      propertyPath: m_Mass
      value: 2
      objectReference: {fileID: 0}
    - target: {fileID: 3180749597132209238, guid: 7e8ab9f2ce99ac442a350a3f7dff2fd7,
        type: 3}
      propertyPath: m_UseGravity
      value: 1
      objectReference: {fileID: 0}
    - target: {fileID: 3659798304053229829, guid: 7e8ab9f2ce99ac442a350a3f7dff2fd7,
        type: 3}
      propertyPath: m_LocalPosition.y
      value: -0.0362
      objectReference: {fileID: 0}
    - target: {fileID: 3659798304053229829, guid: 7e8ab9f2ce99ac442a350a3f7dff2fd7,
        type: 3}
      propertyPath: m_LocalRotation.x
      value: 0.1978755
      objectReference: {fileID: 0}
    - target: {fileID: 3659798304053229829, guid: 7e8ab9f2ce99ac442a350a3f7dff2fd7,
        type: 3}
      propertyPath: m_LocalRotation.y
      value: -0.21583547
      objectReference: {fileID: 0}
    - target: {fileID: 3659798304053229829, guid: 7e8ab9f2ce99ac442a350a3f7dff2fd7,
        type: 3}
      propertyPath: m_LocalRotation.z
      value: -0.6461541
      objectReference: {fileID: 0}
    - target: {fileID: 3659798304053229829, guid: 7e8ab9f2ce99ac442a350a3f7dff2fd7,
        type: 3}
      propertyPath: m_LocalRotation.w
      value: 0.70480156
      objectReference: {fileID: 0}
    - target: {fileID: 3659798304053229829, guid: 7e8ab9f2ce99ac442a350a3f7dff2fd7,
        type: 3}
      propertyPath: m_LocalEulerAnglesHint.z
      value: -85.02801
      objectReference: {fileID: 0}
    - target: {fileID: 3659798304053229829, guid: 7e8ab9f2ce99ac442a350a3f7dff2fd7,
        type: 3}
      propertyPath: m_LocalEulerAnglesHint.y
      value: -34.053
      objectReference: {fileID: 0}
    - target: {fileID: 3659798304053229829, guid: 7e8ab9f2ce99ac442a350a3f7dff2fd7,
        type: 3}
      propertyPath: m_LocalPosition.z
      value: 0.0063
      objectReference: {fileID: 0}
    - target: {fileID: 3659798304053229829, guid: 7e8ab9f2ce99ac442a350a3f7dff2fd7,
        type: 3}
      propertyPath: m_LocalPosition.x
      value: 0.0321
      objectReference: {fileID: 0}
    - target: {fileID: 3792578575685126666, guid: 7e8ab9f2ce99ac442a350a3f7dff2fd7,
        type: 3}
      propertyPath: m_LocalPosition.z
      value: -0.0058
      objectReference: {fileID: 0}
    - target: {fileID: 5374141024186125822, guid: 7e8ab9f2ce99ac442a350a3f7dff2fd7,
        type: 3}
      propertyPath: m_Layer
      value: 22
      objectReference: {fileID: 0}
    - target: {fileID: 5400964732541470180, guid: 7e8ab9f2ce99ac442a350a3f7dff2fd7,
        type: 3}
      propertyPath: m_RootOrder
      value: 3
      objectReference: {fileID: 0}
    - target: {fileID: 5566643997577992045, guid: 7e8ab9f2ce99ac442a350a3f7dff2fd7,
        type: 3}
      propertyPath: m_Layer
      value: 22
      objectReference: {fileID: 0}
    - target: {fileID: 5644355703921661199, guid: 7e8ab9f2ce99ac442a350a3f7dff2fd7,
        type: 3}
      propertyPath: m_Layer
      value: 22
      objectReference: {fileID: 0}
    - target: {fileID: 7481389340218969837, guid: 7e8ab9f2ce99ac442a350a3f7dff2fd7,
        type: 3}
      propertyPath: m_LocalRotation.y
      value: 0.6811465
      objectReference: {fileID: 0}
    - target: {fileID: 7481389340218969837, guid: 7e8ab9f2ce99ac442a350a3f7dff2fd7,
        type: 3}
      propertyPath: m_LocalRotation.w
      value: 0.6359578
      objectReference: {fileID: 0}
    - target: {fileID: 7481389340218969837, guid: 7e8ab9f2ce99ac442a350a3f7dff2fd7,
        type: 3}
      propertyPath: m_LocalEulerAnglesHint.y
      value: 93.93
      objectReference: {fileID: 0}
    - target: {fileID: 7481389340218969837, guid: 7e8ab9f2ce99ac442a350a3f7dff2fd7,
        type: 3}
      propertyPath: m_LocalPosition.x
      value: -0.0614
      objectReference: {fileID: 0}
    - target: {fileID: 7481389340218969837, guid: 7e8ab9f2ce99ac442a350a3f7dff2fd7,
        type: 3}
      propertyPath: m_LocalPosition.z
      value: 0.0566
      objectReference: {fileID: 0}
    - target: {fileID: 7481389340218969837, guid: 7e8ab9f2ce99ac442a350a3f7dff2fd7,
        type: 3}
      propertyPath: m_LocalRotation.x
      value: -0.24756604
      objectReference: {fileID: 0}
    - target: {fileID: 7481389340218969837, guid: 7e8ab9f2ce99ac442a350a3f7dff2fd7,
        type: 3}
      propertyPath: m_LocalRotation.z
      value: 0.26515713
      objectReference: {fileID: 0}
    - target: {fileID: 7481389340218969837, guid: 7e8ab9f2ce99ac442a350a3f7dff2fd7,
        type: 3}
      propertyPath: m_LocalEulerAnglesHint.x
      value: -42.54
      objectReference: {fileID: 0}
    - target: {fileID: 7481389340218969837, guid: 7e8ab9f2ce99ac442a350a3f7dff2fd7,
        type: 3}
      propertyPath: m_LocalPosition.y
      value: 0.0143
      objectReference: {fileID: 0}
    - target: {fileID: 7685653387735502691, guid: 7e8ab9f2ce99ac442a350a3f7dff2fd7,
        type: 3}
      propertyPath: mirrorPlaneAxis
      value: 2
      objectReference: {fileID: 0}
    - target: {fileID: 8086614173453513277, guid: 7e8ab9f2ce99ac442a350a3f7dff2fd7,
        type: 3}
      propertyPath: m_LocalPosition.x
      value: 0
      objectReference: {fileID: 0}
    - target: {fileID: 8086614173453513277, guid: 7e8ab9f2ce99ac442a350a3f7dff2fd7,
        type: 3}
      propertyPath: m_LocalPosition.y
      value: 0
      objectReference: {fileID: 0}
    - target: {fileID: 8086614173453513277, guid: 7e8ab9f2ce99ac442a350a3f7dff2fd7,
        type: 3}
      propertyPath: m_LocalPosition.z
      value: 0
      objectReference: {fileID: 0}
    - target: {fileID: 8086614173453513277, guid: 7e8ab9f2ce99ac442a350a3f7dff2fd7,
        type: 3}
      propertyPath: m_LocalRotation.x
      value: 0
      objectReference: {fileID: 0}
    - target: {fileID: 8086614173453513277, guid: 7e8ab9f2ce99ac442a350a3f7dff2fd7,
        type: 3}
      propertyPath: m_LocalRotation.y
      value: 0
      objectReference: {fileID: 0}
    - target: {fileID: 8086614173453513277, guid: 7e8ab9f2ce99ac442a350a3f7dff2fd7,
        type: 3}
      propertyPath: m_LocalRotation.z
      value: 0
      objectReference: {fileID: 0}
    - target: {fileID: 8086614173453513277, guid: 7e8ab9f2ce99ac442a350a3f7dff2fd7,
        type: 3}
      propertyPath: m_LocalRotation.w
      value: 1
      objectReference: {fileID: 0}
    - target: {fileID: 8086614173453513277, guid: 7e8ab9f2ce99ac442a350a3f7dff2fd7,
        type: 3}
      propertyPath: m_RootOrder
      value: 0
      objectReference: {fileID: 0}
    - target: {fileID: 8086614173453513277, guid: 7e8ab9f2ce99ac442a350a3f7dff2fd7,
        type: 3}
      propertyPath: m_LocalEulerAnglesHint.x
      value: 0
      objectReference: {fileID: 0}
    - target: {fileID: 8086614173453513277, guid: 7e8ab9f2ce99ac442a350a3f7dff2fd7,
        type: 3}
      propertyPath: m_LocalEulerAnglesHint.y
      value: 0
      objectReference: {fileID: 0}
    - target: {fileID: 8086614173453513277, guid: 7e8ab9f2ce99ac442a350a3f7dff2fd7,
        type: 3}
      propertyPath: m_LocalEulerAnglesHint.z
      value: 0
      objectReference: {fileID: 0}
    - target: {fileID: 8430598977233108210, guid: 7e8ab9f2ce99ac442a350a3f7dff2fd7,
        type: 3}
      propertyPath: m_Layer
      value: 22
      objectReference: {fileID: 0}
    - target: {fileID: 8496570891505307694, guid: 7e8ab9f2ce99ac442a350a3f7dff2fd7,
        type: 3}
      propertyPath: m_Layer
      value: 22
      objectReference: {fileID: 0}
    - target: {fileID: 8895379001231911047, guid: 7e8ab9f2ce99ac442a350a3f7dff2fd7,
        type: 3}
      propertyPath: m_Name
      value: SmartPhone Variant
      objectReference: {fileID: 0}
    - target: {fileID: 8895379001231911047, guid: 7e8ab9f2ce99ac442a350a3f7dff2fd7,
        type: 3}
      propertyPath: m_Layer
      value: 22
      objectReference: {fileID: 0}
    - target: {fileID: 9138965360957616222, guid: 7e8ab9f2ce99ac442a350a3f7dff2fd7,
        type: 3}
      propertyPath: m_Layer
      value: 22
      objectReference: {fileID: 0}
    m_RemovedComponents: []
  m_SourcePrefab: {fileID: 100100000, guid: 7e8ab9f2ce99ac442a350a3f7dff2fd7, type: 3}
--- !u!4 &3826327123695694757 stripped
Transform:
  m_CorrespondingSourceObject: {fileID: 8086614173453513277, guid: 7e8ab9f2ce99ac442a350a3f7dff2fd7,
    type: 3}
  m_PrefabInstance: {fileID: 4981179658143203736}
  m_PrefabAsset: {fileID: 0}
--- !u!1001 &8667332988318386646
PrefabInstance:
  m_ObjectHideFlags: 0
  serializedVersion: 2
  m_Modification:
    m_TransformParent: {fileID: 3826327123695694757}
    m_Modifications:
    - target: {fileID: -8679921383154817045, guid: b26948db2c0551047a368a027c1c448e,
        type: 3}
      propertyPath: m_LocalPosition.x
      value: 0
      objectReference: {fileID: 0}
    - target: {fileID: -8679921383154817045, guid: b26948db2c0551047a368a027c1c448e,
        type: 3}
      propertyPath: m_LocalPosition.y
      value: 0
      objectReference: {fileID: 0}
    - target: {fileID: -8679921383154817045, guid: b26948db2c0551047a368a027c1c448e,
        type: 3}
      propertyPath: m_LocalPosition.z
      value: 0
      objectReference: {fileID: 0}
    - target: {fileID: -8679921383154817045, guid: b26948db2c0551047a368a027c1c448e,
        type: 3}
      propertyPath: m_LocalRotation.x
      value: -0
      objectReference: {fileID: 0}
    - target: {fileID: -8679921383154817045, guid: b26948db2c0551047a368a027c1c448e,
        type: 3}
      propertyPath: m_LocalRotation.y
      value: -0
      objectReference: {fileID: 0}
    - target: {fileID: -8679921383154817045, guid: b26948db2c0551047a368a027c1c448e,
        type: 3}
      propertyPath: m_LocalRotation.z
      value: -0
      objectReference: {fileID: 0}
    - target: {fileID: -8679921383154817045, guid: b26948db2c0551047a368a027c1c448e,
        type: 3}
      propertyPath: m_LocalRotation.w
      value: 1
      objectReference: {fileID: 0}
    - target: {fileID: -8679921383154817045, guid: b26948db2c0551047a368a027c1c448e,
        type: 3}
      propertyPath: m_RootOrder
      value: 2
      objectReference: {fileID: 0}
    - target: {fileID: -8679921383154817045, guid: b26948db2c0551047a368a027c1c448e,
        type: 3}
      propertyPath: m_LocalEulerAnglesHint.x
      value: 0
      objectReference: {fileID: 0}
    - target: {fileID: -8679921383154817045, guid: b26948db2c0551047a368a027c1c448e,
        type: 3}
      propertyPath: m_LocalEulerAnglesHint.y
      value: 0
      objectReference: {fileID: 0}
    - target: {fileID: -8679921383154817045, guid: b26948db2c0551047a368a027c1c448e,
        type: 3}
      propertyPath: m_LocalEulerAnglesHint.z
      value: 0
      objectReference: {fileID: 0}
    - target: {fileID: 919132149155446097, guid: b26948db2c0551047a368a027c1c448e,
        type: 3}
      propertyPath: m_Name
      value: smartphone
      objectReference: {fileID: 0}
    - target: {fileID: 919132149155446097, guid: b26948db2c0551047a368a027c1c448e,
        type: 3}
      propertyPath: m_Layer
      value: 22
      objectReference: {fileID: 0}
    m_RemovedComponents: []
  m_SourcePrefab: {fileID: 100100000, guid: b26948db2c0551047a368a027c1c448e, type: 3}
--- !u!1 &8397494491525887111 stripped
GameObject:
  m_CorrespondingSourceObject: {fileID: 919132149155446097, guid: b26948db2c0551047a368a027c1c448e,
    type: 3}
  m_PrefabInstance: {fileID: 8667332988318386646}
  m_PrefabAsset: {fileID: 0}
--- !u!1001 &8687218212338836092
PrefabInstance:
  m_ObjectHideFlags: 0
  serializedVersion: 2
  m_Modification:
    m_TransformParent: {fileID: 3826327123695694757}
    m_Modifications:
    - target: {fileID: 366591664289776150, guid: a87d386506e5c6a4991cf199e33c8dad,
        type: 3}
      propertyPath: m_AnchorMin.y
      value: 0
      objectReference: {fileID: 0}
    - target: {fileID: 366591664289776150, guid: a87d386506e5c6a4991cf199e33c8dad,
        type: 3}
      propertyPath: m_AnchorMax.y
      value: 0
      objectReference: {fileID: 0}
    - target: {fileID: 366591664289776150, guid: a87d386506e5c6a4991cf199e33c8dad,
        type: 3}
      propertyPath: m_AnchoredPosition.x
      value: 0
      objectReference: {fileID: 0}
    - target: {fileID: 366591664289776150, guid: a87d386506e5c6a4991cf199e33c8dad,
        type: 3}
      propertyPath: m_AnchoredPosition.y
      value: 0
      objectReference: {fileID: 0}
    - target: {fileID: 366591664289776150, guid: a87d386506e5c6a4991cf199e33c8dad,
        type: 3}
      propertyPath: m_SizeDelta.x
      value: 0
      objectReference: {fileID: 0}
    - target: {fileID: 366591664289776150, guid: a87d386506e5c6a4991cf199e33c8dad,
        type: 3}
      propertyPath: m_SizeDelta.y
      value: 0
      objectReference: {fileID: 0}
    - target: {fileID: 538693697953950044, guid: a87d386506e5c6a4991cf199e33c8dad,
        type: 3}
      propertyPath: m_AnchorMin.y
      value: 1
      objectReference: {fileID: 0}
    - target: {fileID: 538693697953950044, guid: a87d386506e5c6a4991cf199e33c8dad,
        type: 3}
      propertyPath: m_AnchorMax.y
      value: 1
      objectReference: {fileID: 0}
    - target: {fileID: 538693697953950044, guid: a87d386506e5c6a4991cf199e33c8dad,
        type: 3}
      propertyPath: m_AnchoredPosition.x
      value: 0.035
      objectReference: {fileID: 0}
    - target: {fileID: 538693697953950044, guid: a87d386506e5c6a4991cf199e33c8dad,
        type: 3}
      propertyPath: m_SizeDelta.x
      value: 0.07
      objectReference: {fileID: 0}
    - target: {fileID: 538693697953950044, guid: a87d386506e5c6a4991cf199e33c8dad,
        type: 3}
      propertyPath: m_AnchoredPosition.y
      value: -0.01
      objectReference: {fileID: 0}
    - target: {fileID: 929890774130309841, guid: a87d386506e5c6a4991cf199e33c8dad,
        type: 3}
      propertyPath: m_AnchorMin.y
      value: 1
      objectReference: {fileID: 0}
    - target: {fileID: 929890774130309841, guid: a87d386506e5c6a4991cf199e33c8dad,
        type: 3}
      propertyPath: m_AnchorMax.y
      value: 1
      objectReference: {fileID: 0}
    - target: {fileID: 929890774130309841, guid: a87d386506e5c6a4991cf199e33c8dad,
        type: 3}
      propertyPath: m_AnchoredPosition.x
      value: 0.035
      objectReference: {fileID: 0}
    - target: {fileID: 929890774130309841, guid: a87d386506e5c6a4991cf199e33c8dad,
        type: 3}
      propertyPath: m_AnchoredPosition.y
      value: -0.61100006
      objectReference: {fileID: 0}
    - target: {fileID: 929890774130309841, guid: a87d386506e5c6a4991cf199e33c8dad,
        type: 3}
      propertyPath: m_SizeDelta.x
      value: 0.07
      objectReference: {fileID: 0}
    - target: {fileID: 1749552594016673153, guid: a87d386506e5c6a4991cf199e33c8dad,
        type: 3}
      propertyPath: m_IsActive
      value: 0
      objectReference: {fileID: 0}
    - target: {fileID: 1924840617485607655, guid: a87d386506e5c6a4991cf199e33c8dad,
        type: 3}
      propertyPath: m_AnchorMin.y
      value: 0
      objectReference: {fileID: 0}
    - target: {fileID: 1924840617485607655, guid: a87d386506e5c6a4991cf199e33c8dad,
        type: 3}
      propertyPath: m_AnchorMax.y
      value: 0
      objectReference: {fileID: 0}
    - target: {fileID: 1924840617485607655, guid: a87d386506e5c6a4991cf199e33c8dad,
        type: 3}
      propertyPath: m_AnchoredPosition.x
      value: 0
      objectReference: {fileID: 0}
    - target: {fileID: 1924840617485607655, guid: a87d386506e5c6a4991cf199e33c8dad,
        type: 3}
      propertyPath: m_AnchoredPosition.y
      value: 0
      objectReference: {fileID: 0}
    - target: {fileID: 1924840617485607655, guid: a87d386506e5c6a4991cf199e33c8dad,
        type: 3}
      propertyPath: m_SizeDelta.x
      value: 0
      objectReference: {fileID: 0}
    - target: {fileID: 1924840617485607655, guid: a87d386506e5c6a4991cf199e33c8dad,
        type: 3}
      propertyPath: m_SizeDelta.y
      value: 0
      objectReference: {fileID: 0}
    - target: {fileID: 1956714054758311590, guid: a87d386506e5c6a4991cf199e33c8dad,
        type: 3}
      propertyPath: m_AnchorMin.y
      value: 0
      objectReference: {fileID: 0}
    - target: {fileID: 1956714054758311590, guid: a87d386506e5c6a4991cf199e33c8dad,
        type: 3}
      propertyPath: m_AnchorMax.y
      value: 0
      objectReference: {fileID: 0}
    - target: {fileID: 1956714054758311590, guid: a87d386506e5c6a4991cf199e33c8dad,
        type: 3}
      propertyPath: m_AnchoredPosition.x
      value: 0
      objectReference: {fileID: 0}
    - target: {fileID: 1956714054758311590, guid: a87d386506e5c6a4991cf199e33c8dad,
        type: 3}
      propertyPath: m_AnchoredPosition.y
      value: 0
      objectReference: {fileID: 0}
    - target: {fileID: 1956714054758311590, guid: a87d386506e5c6a4991cf199e33c8dad,
        type: 3}
      propertyPath: m_SizeDelta.x
      value: 0
      objectReference: {fileID: 0}
    - target: {fileID: 1956714054758311590, guid: a87d386506e5c6a4991cf199e33c8dad,
        type: 3}
      propertyPath: m_SizeDelta.y
      value: 0
      objectReference: {fileID: 0}
    - target: {fileID: 2020726231760608479, guid: a87d386506e5c6a4991cf199e33c8dad,
        type: 3}
      propertyPath: m_AnchorMin.y
      value: 0
      objectReference: {fileID: 0}
    - target: {fileID: 2020726231760608479, guid: a87d386506e5c6a4991cf199e33c8dad,
        type: 3}
      propertyPath: m_AnchorMax.y
      value: 0
      objectReference: {fileID: 0}
    - target: {fileID: 2020726231760608479, guid: a87d386506e5c6a4991cf199e33c8dad,
        type: 3}
      propertyPath: m_AnchoredPosition.x
      value: 0
      objectReference: {fileID: 0}
    - target: {fileID: 2020726231760608479, guid: a87d386506e5c6a4991cf199e33c8dad,
        type: 3}
      propertyPath: m_AnchoredPosition.y
      value: 0
      objectReference: {fileID: 0}
    - target: {fileID: 2020726231760608479, guid: a87d386506e5c6a4991cf199e33c8dad,
        type: 3}
      propertyPath: m_SizeDelta.x
      value: 0
      objectReference: {fileID: 0}
    - target: {fileID: 2020726231760608479, guid: a87d386506e5c6a4991cf199e33c8dad,
        type: 3}
      propertyPath: m_SizeDelta.y
      value: 0
      objectReference: {fileID: 0}
    - target: {fileID: 2720428702641094041, guid: a87d386506e5c6a4991cf199e33c8dad,
        type: 3}
      propertyPath: m_AnchorMin.y
      value: 1
      objectReference: {fileID: 0}
    - target: {fileID: 2720428702641094041, guid: a87d386506e5c6a4991cf199e33c8dad,
        type: 3}
      propertyPath: m_AnchorMax.y
      value: 1
      objectReference: {fileID: 0}
    - target: {fileID: 2720428702641094041, guid: a87d386506e5c6a4991cf199e33c8dad,
        type: 3}
      propertyPath: m_AnchoredPosition.x
      value: 0.035
      objectReference: {fileID: 0}
    - target: {fileID: 2720428702641094041, guid: a87d386506e5c6a4991cf199e33c8dad,
        type: 3}
      propertyPath: m_AnchoredPosition.y
      value: -0.53900003
      objectReference: {fileID: 0}
    - target: {fileID: 2720428702641094041, guid: a87d386506e5c6a4991cf199e33c8dad,
        type: 3}
      propertyPath: m_SizeDelta.x
      value: 0.07
      objectReference: {fileID: 0}
    - target: {fileID: 2760694562290060689, guid: a87d386506e5c6a4991cf199e33c8dad,
        type: 3}
      propertyPath: m_AnchorMin.y
      value: 0
      objectReference: {fileID: 0}
    - target: {fileID: 2760694562290060689, guid: a87d386506e5c6a4991cf199e33c8dad,
        type: 3}
      propertyPath: m_AnchorMax.y
      value: 0
      objectReference: {fileID: 0}
    - target: {fileID: 2760694562290060689, guid: a87d386506e5c6a4991cf199e33c8dad,
        type: 3}
      propertyPath: m_AnchoredPosition.x
      value: 0
      objectReference: {fileID: 0}
    - target: {fileID: 2760694562290060689, guid: a87d386506e5c6a4991cf199e33c8dad,
        type: 3}
      propertyPath: m_AnchoredPosition.y
      value: 0
      objectReference: {fileID: 0}
    - target: {fileID: 2760694562290060689, guid: a87d386506e5c6a4991cf199e33c8dad,
        type: 3}
      propertyPath: m_SizeDelta.x
      value: 0
      objectReference: {fileID: 0}
    - target: {fileID: 2760694562290060689, guid: a87d386506e5c6a4991cf199e33c8dad,
        type: 3}
      propertyPath: m_SizeDelta.y
      value: 0
      objectReference: {fileID: 0}
    - target: {fileID: 4252301685524129208, guid: a87d386506e5c6a4991cf199e33c8dad,
        type: 3}
      propertyPath: m_AnchorMin.y
      value: 1
      objectReference: {fileID: 0}
    - target: {fileID: 4252301685524129208, guid: a87d386506e5c6a4991cf199e33c8dad,
        type: 3}
      propertyPath: m_AnchorMax.y
      value: 1
      objectReference: {fileID: 0}
    - target: {fileID: 4252301685524129208, guid: a87d386506e5c6a4991cf199e33c8dad,
        type: 3}
      propertyPath: m_AnchoredPosition.x
      value: 0.035
      objectReference: {fileID: 0}
    - target: {fileID: 4252301685524129208, guid: a87d386506e5c6a4991cf199e33c8dad,
        type: 3}
      propertyPath: m_AnchoredPosition.y
      value: -0.10699999
      objectReference: {fileID: 0}
    - target: {fileID: 4252301685524129208, guid: a87d386506e5c6a4991cf199e33c8dad,
        type: 3}
      propertyPath: m_SizeDelta.x
      value: 0.07
      objectReference: {fileID: 0}
    - target: {fileID: 4474941374923008917, guid: a87d386506e5c6a4991cf199e33c8dad,
        type: 3}
      propertyPath: m_IsActive
      value: 1
      objectReference: {fileID: 0}
    - target: {fileID: 4544030051421907106, guid: a87d386506e5c6a4991cf199e33c8dad,
        type: 3}
      propertyPath: m_AnchorMin.y
      value: 0
      objectReference: {fileID: 0}
    - target: {fileID: 4544030051421907106, guid: a87d386506e5c6a4991cf199e33c8dad,
        type: 3}
      propertyPath: m_AnchorMax.y
      value: 0
      objectReference: {fileID: 0}
    - target: {fileID: 4544030051421907106, guid: a87d386506e5c6a4991cf199e33c8dad,
        type: 3}
      propertyPath: m_AnchoredPosition.x
      value: 0
      objectReference: {fileID: 0}
    - target: {fileID: 4544030051421907106, guid: a87d386506e5c6a4991cf199e33c8dad,
        type: 3}
      propertyPath: m_AnchoredPosition.y
      value: 0
      objectReference: {fileID: 0}
    - target: {fileID: 4544030051421907106, guid: a87d386506e5c6a4991cf199e33c8dad,
        type: 3}
      propertyPath: m_SizeDelta.x
      value: 0
      objectReference: {fileID: 0}
    - target: {fileID: 4544030051421907106, guid: a87d386506e5c6a4991cf199e33c8dad,
        type: 3}
      propertyPath: m_SizeDelta.y
      value: 0
      objectReference: {fileID: 0}
    - target: {fileID: 4555098621596577491, guid: a87d386506e5c6a4991cf199e33c8dad,
        type: 3}
      propertyPath: m_AnchorMin.y
      value: 0
      objectReference: {fileID: 0}
    - target: {fileID: 4555098621596577491, guid: a87d386506e5c6a4991cf199e33c8dad,
        type: 3}
      propertyPath: m_AnchorMax.y
      value: 0
      objectReference: {fileID: 0}
    - target: {fileID: 4555098621596577491, guid: a87d386506e5c6a4991cf199e33c8dad,
        type: 3}
      propertyPath: m_AnchoredPosition.x
      value: 0
      objectReference: {fileID: 0}
    - target: {fileID: 4555098621596577491, guid: a87d386506e5c6a4991cf199e33c8dad,
        type: 3}
      propertyPath: m_SizeDelta.x
      value: 0
      objectReference: {fileID: 0}
    - target: {fileID: 4555098621596577491, guid: a87d386506e5c6a4991cf199e33c8dad,
        type: 3}
      propertyPath: m_AnchoredPosition.y
      value: 0
      objectReference: {fileID: 0}
    - target: {fileID: 4957708957839929414, guid: a87d386506e5c6a4991cf199e33c8dad,
        type: 3}
      propertyPath: m_AnchorMin.y
      value: 0
      objectReference: {fileID: 0}
    - target: {fileID: 4957708957839929414, guid: a87d386506e5c6a4991cf199e33c8dad,
        type: 3}
      propertyPath: m_AnchorMax.y
      value: 0
      objectReference: {fileID: 0}
    - target: {fileID: 4957708957839929414, guid: a87d386506e5c6a4991cf199e33c8dad,
        type: 3}
      propertyPath: m_AnchoredPosition.x
      value: 0
      objectReference: {fileID: 0}
    - target: {fileID: 4957708957839929414, guid: a87d386506e5c6a4991cf199e33c8dad,
        type: 3}
      propertyPath: m_AnchoredPosition.y
      value: 0
      objectReference: {fileID: 0}
    - target: {fileID: 4957708957839929414, guid: a87d386506e5c6a4991cf199e33c8dad,
        type: 3}
      propertyPath: m_SizeDelta.x
      value: 0
      objectReference: {fileID: 0}
    - target: {fileID: 4957708957839929414, guid: a87d386506e5c6a4991cf199e33c8dad,
        type: 3}
      propertyPath: m_SizeDelta.y
      value: 0
      objectReference: {fileID: 0}
    - target: {fileID: 5033539979256334822, guid: a87d386506e5c6a4991cf199e33c8dad,
        type: 3}
      propertyPath: m_AnchorMin.y
      value: 0
      objectReference: {fileID: 0}
    - target: {fileID: 5033539979256334822, guid: a87d386506e5c6a4991cf199e33c8dad,
        type: 3}
      propertyPath: m_AnchorMax.y
      value: 0
      objectReference: {fileID: 0}
    - target: {fileID: 5033539979256334822, guid: a87d386506e5c6a4991cf199e33c8dad,
        type: 3}
      propertyPath: m_AnchoredPosition.x
      value: 0
      objectReference: {fileID: 0}
    - target: {fileID: 5033539979256334822, guid: a87d386506e5c6a4991cf199e33c8dad,
        type: 3}
      propertyPath: m_AnchoredPosition.y
      value: 0
      objectReference: {fileID: 0}
    - target: {fileID: 5033539979256334822, guid: a87d386506e5c6a4991cf199e33c8dad,
        type: 3}
      propertyPath: m_SizeDelta.x
      value: 0
      objectReference: {fileID: 0}
    - target: {fileID: 5033539979256334822, guid: a87d386506e5c6a4991cf199e33c8dad,
        type: 3}
      propertyPath: m_SizeDelta.y
      value: 0
      objectReference: {fileID: 0}
    - target: {fileID: 5496405380244144408, guid: a87d386506e5c6a4991cf199e33c8dad,
        type: 3}
      propertyPath: m_IsActive
      value: 0
      objectReference: {fileID: 0}
    - target: {fileID: 5503018865157399669, guid: a87d386506e5c6a4991cf199e33c8dad,
        type: 3}
      propertyPath: m_AnchorMin.y
      value: 0
      objectReference: {fileID: 0}
    - target: {fileID: 5503018865157399669, guid: a87d386506e5c6a4991cf199e33c8dad,
        type: 3}
      propertyPath: m_AnchorMax.y
      value: 0
      objectReference: {fileID: 0}
    - target: {fileID: 5503018865157399669, guid: a87d386506e5c6a4991cf199e33c8dad,
        type: 3}
      propertyPath: m_AnchoredPosition.x
      value: 0
      objectReference: {fileID: 0}
    - target: {fileID: 5503018865157399669, guid: a87d386506e5c6a4991cf199e33c8dad,
        type: 3}
      propertyPath: m_AnchoredPosition.y
      value: 0
      objectReference: {fileID: 0}
    - target: {fileID: 5503018865157399669, guid: a87d386506e5c6a4991cf199e33c8dad,
        type: 3}
      propertyPath: m_SizeDelta.x
      value: 0
      objectReference: {fileID: 0}
    - target: {fileID: 5503018865157399669, guid: a87d386506e5c6a4991cf199e33c8dad,
        type: 3}
      propertyPath: m_SizeDelta.y
      value: 0
      objectReference: {fileID: 0}
    - target: {fileID: 5680264007576468240, guid: a87d386506e5c6a4991cf199e33c8dad,
        type: 3}
      propertyPath: m_AnchorMin.y
      value: 1
      objectReference: {fileID: 0}
    - target: {fileID: 5680264007576468240, guid: a87d386506e5c6a4991cf199e33c8dad,
        type: 3}
      propertyPath: m_AnchorMax.y
      value: 1
      objectReference: {fileID: 0}
    - target: {fileID: 5680264007576468240, guid: a87d386506e5c6a4991cf199e33c8dad,
        type: 3}
      propertyPath: m_AnchoredPosition.x
      value: 0.035
      objectReference: {fileID: 0}
    - target: {fileID: 5680264007576468240, guid: a87d386506e5c6a4991cf199e33c8dad,
        type: 3}
      propertyPath: m_AnchoredPosition.y
      value: -0.251
      objectReference: {fileID: 0}
    - target: {fileID: 5680264007576468240, guid: a87d386506e5c6a4991cf199e33c8dad,
        type: 3}
      propertyPath: m_SizeDelta.x
      value: 0.07
      objectReference: {fileID: 0}
    - target: {fileID: 5886683987711109083, guid: a87d386506e5c6a4991cf199e33c8dad,
        type: 3}
      propertyPath: m_AnchorMin.y
      value: 1
      objectReference: {fileID: 0}
    - target: {fileID: 5886683987711109083, guid: a87d386506e5c6a4991cf199e33c8dad,
        type: 3}
      propertyPath: m_AnchorMax.y
      value: 1
      objectReference: {fileID: 0}
    - target: {fileID: 5886683987711109083, guid: a87d386506e5c6a4991cf199e33c8dad,
        type: 3}
      propertyPath: m_AnchoredPosition.x
      value: 0.035
      objectReference: {fileID: 0}
    - target: {fileID: 5886683987711109083, guid: a87d386506e5c6a4991cf199e33c8dad,
        type: 3}
      propertyPath: m_AnchoredPosition.y
      value: -0.17899999
      objectReference: {fileID: 0}
    - target: {fileID: 5886683987711109083, guid: a87d386506e5c6a4991cf199e33c8dad,
        type: 3}
      propertyPath: m_SizeDelta.x
      value: 0.07
      objectReference: {fileID: 0}
    - target: {fileID: 5966448515170694328, guid: a87d386506e5c6a4991cf199e33c8dad,
        type: 3}
      propertyPath: m_AnchorMin.y
      value: 1
      objectReference: {fileID: 0}
    - target: {fileID: 5966448515170694328, guid: a87d386506e5c6a4991cf199e33c8dad,
        type: 3}
      propertyPath: m_AnchorMax.y
      value: 1
      objectReference: {fileID: 0}
    - target: {fileID: 5966448515170694328, guid: a87d386506e5c6a4991cf199e33c8dad,
        type: 3}
      propertyPath: m_AnchoredPosition.x
      value: 0.035
      objectReference: {fileID: 0}
    - target: {fileID: 5966448515170694328, guid: a87d386506e5c6a4991cf199e33c8dad,
        type: 3}
      propertyPath: m_AnchoredPosition.y
      value: -0.46699998
      objectReference: {fileID: 0}
    - target: {fileID: 5966448515170694328, guid: a87d386506e5c6a4991cf199e33c8dad,
        type: 3}
      propertyPath: m_SizeDelta.x
      value: 0.07
      objectReference: {fileID: 0}
    - target: {fileID: 5992454243434135732, guid: a87d386506e5c6a4991cf199e33c8dad,
        type: 3}
      propertyPath: m_AnchorMin.y
      value: 0
      objectReference: {fileID: 0}
    - target: {fileID: 5992454243434135732, guid: a87d386506e5c6a4991cf199e33c8dad,
        type: 3}
      propertyPath: m_AnchorMax.y
      value: 0
      objectReference: {fileID: 0}
    - target: {fileID: 5992454243434135732, guid: a87d386506e5c6a4991cf199e33c8dad,
        type: 3}
      propertyPath: m_AnchoredPosition.x
      value: 0
      objectReference: {fileID: 0}
    - target: {fileID: 5992454243434135732, guid: a87d386506e5c6a4991cf199e33c8dad,
        type: 3}
      propertyPath: m_AnchoredPosition.y
      value: 0
      objectReference: {fileID: 0}
    - target: {fileID: 5992454243434135732, guid: a87d386506e5c6a4991cf199e33c8dad,
        type: 3}
      propertyPath: m_SizeDelta.x
      value: 0
      objectReference: {fileID: 0}
    - target: {fileID: 5992454243434135732, guid: a87d386506e5c6a4991cf199e33c8dad,
        type: 3}
      propertyPath: m_SizeDelta.y
      value: 0
      objectReference: {fileID: 0}
    - target: {fileID: 6336837754802589063, guid: a87d386506e5c6a4991cf199e33c8dad,
        type: 3}
      propertyPath: m_AnchorMin.y
      value: 0
      objectReference: {fileID: 0}
    - target: {fileID: 6336837754802589063, guid: a87d386506e5c6a4991cf199e33c8dad,
        type: 3}
      propertyPath: m_AnchorMax.y
      value: 0
      objectReference: {fileID: 0}
    - target: {fileID: 6336837754802589063, guid: a87d386506e5c6a4991cf199e33c8dad,
        type: 3}
      propertyPath: m_AnchoredPosition.x
      value: 0
      objectReference: {fileID: 0}
    - target: {fileID: 6336837754802589063, guid: a87d386506e5c6a4991cf199e33c8dad,
        type: 3}
      propertyPath: m_AnchoredPosition.y
      value: 0
      objectReference: {fileID: 0}
    - target: {fileID: 6336837754802589063, guid: a87d386506e5c6a4991cf199e33c8dad,
        type: 3}
      propertyPath: m_SizeDelta.x
      value: 0
      objectReference: {fileID: 0}
    - target: {fileID: 6336837754802589063, guid: a87d386506e5c6a4991cf199e33c8dad,
        type: 3}
      propertyPath: m_SizeDelta.y
      value: 0
      objectReference: {fileID: 0}
    - target: {fileID: 6562515988061305906, guid: a87d386506e5c6a4991cf199e33c8dad,
        type: 3}
      propertyPath: m_AnchorMin.y
      value: 1
      objectReference: {fileID: 0}
    - target: {fileID: 6562515988061305906, guid: a87d386506e5c6a4991cf199e33c8dad,
        type: 3}
      propertyPath: m_AnchorMax.y
      value: 1
      objectReference: {fileID: 0}
    - target: {fileID: 6562515988061305906, guid: a87d386506e5c6a4991cf199e33c8dad,
        type: 3}
      propertyPath: m_AnchoredPosition.x
      value: 0.035
      objectReference: {fileID: 0}
    - target: {fileID: 6562515988061305906, guid: a87d386506e5c6a4991cf199e33c8dad,
        type: 3}
      propertyPath: m_SizeDelta.x
      value: 0.07
      objectReference: {fileID: 0}
    - target: {fileID: 6562515988061305906, guid: a87d386506e5c6a4991cf199e33c8dad,
        type: 3}
      propertyPath: m_AnchoredPosition.y
      value: -0.065
      objectReference: {fileID: 0}
    - target: {fileID: 6661067642181340842, guid: a87d386506e5c6a4991cf199e33c8dad,
        type: 3}
      propertyPath: m_IsActive
      value: 0
      objectReference: {fileID: 0}
    - target: {fileID: 6968262189824406868, guid: a87d386506e5c6a4991cf199e33c8dad,
        type: 3}
      propertyPath: m_AnchorMin.y
      value: 0
      objectReference: {fileID: 0}
    - target: {fileID: 6968262189824406868, guid: a87d386506e5c6a4991cf199e33c8dad,
        type: 3}
      propertyPath: m_AnchorMax.y
      value: 0
      objectReference: {fileID: 0}
    - target: {fileID: 6968262189824406868, guid: a87d386506e5c6a4991cf199e33c8dad,
        type: 3}
      propertyPath: m_AnchoredPosition.x
      value: 0
      objectReference: {fileID: 0}
    - target: {fileID: 6968262189824406868, guid: a87d386506e5c6a4991cf199e33c8dad,
        type: 3}
      propertyPath: m_SizeDelta.x
      value: 0
      objectReference: {fileID: 0}
    - target: {fileID: 7460155303912832021, guid: a87d386506e5c6a4991cf199e33c8dad,
        type: 3}
      propertyPath: m_AnchorMin.y
      value: 0
      objectReference: {fileID: 0}
    - target: {fileID: 7460155303912832021, guid: a87d386506e5c6a4991cf199e33c8dad,
        type: 3}
      propertyPath: m_AnchorMax.y
      value: 0
      objectReference: {fileID: 0}
    - target: {fileID: 7460155303912832021, guid: a87d386506e5c6a4991cf199e33c8dad,
        type: 3}
      propertyPath: m_AnchoredPosition.x
      value: 0
      objectReference: {fileID: 0}
    - target: {fileID: 7460155303912832021, guid: a87d386506e5c6a4991cf199e33c8dad,
        type: 3}
      propertyPath: m_AnchoredPosition.y
      value: 0
      objectReference: {fileID: 0}
    - target: {fileID: 7460155303912832021, guid: a87d386506e5c6a4991cf199e33c8dad,
        type: 3}
      propertyPath: m_SizeDelta.x
      value: 0
      objectReference: {fileID: 0}
    - target: {fileID: 7460155303912832021, guid: a87d386506e5c6a4991cf199e33c8dad,
        type: 3}
      propertyPath: m_SizeDelta.y
      value: 0
      objectReference: {fileID: 0}
    - target: {fileID: 7579253052497579845, guid: a87d386506e5c6a4991cf199e33c8dad,
        type: 3}
      propertyPath: m_AnchorMin.y
      value: 0
      objectReference: {fileID: 0}
    - target: {fileID: 7579253052497579845, guid: a87d386506e5c6a4991cf199e33c8dad,
        type: 3}
      propertyPath: m_AnchorMax.y
      value: 0
      objectReference: {fileID: 0}
    - target: {fileID: 7579253052497579845, guid: a87d386506e5c6a4991cf199e33c8dad,
        type: 3}
      propertyPath: m_AnchoredPosition.x
      value: 0
      objectReference: {fileID: 0}
    - target: {fileID: 7579253052497579845, guid: a87d386506e5c6a4991cf199e33c8dad,
        type: 3}
      propertyPath: m_SizeDelta.x
      value: 0
      objectReference: {fileID: 0}
    - target: {fileID: 7579253052497579845, guid: a87d386506e5c6a4991cf199e33c8dad,
        type: 3}
      propertyPath: m_AnchoredPosition.y
      value: 0
      objectReference: {fileID: 0}
    - target: {fileID: 7801964163836779359, guid: a87d386506e5c6a4991cf199e33c8dad,
        type: 3}
      propertyPath: m_AnchorMin.y
      value: 1
      objectReference: {fileID: 0}
    - target: {fileID: 7801964163836779359, guid: a87d386506e5c6a4991cf199e33c8dad,
        type: 3}
      propertyPath: m_AnchorMax.y
      value: 1
      objectReference: {fileID: 0}
    - target: {fileID: 7801964163836779359, guid: a87d386506e5c6a4991cf199e33c8dad,
        type: 3}
      propertyPath: m_AnchoredPosition.x
      value: 0.035
      objectReference: {fileID: 0}
    - target: {fileID: 7801964163836779359, guid: a87d386506e5c6a4991cf199e33c8dad,
        type: 3}
      propertyPath: m_AnchoredPosition.y
      value: -0.39499998
      objectReference: {fileID: 0}
    - target: {fileID: 7801964163836779359, guid: a87d386506e5c6a4991cf199e33c8dad,
        type: 3}
      propertyPath: m_SizeDelta.x
      value: 0.07
      objectReference: {fileID: 0}
    - target: {fileID: 8179726549344643584, guid: a87d386506e5c6a4991cf199e33c8dad,
        type: 3}
      propertyPath: m_AnchorMin.y
      value: 1
      objectReference: {fileID: 0}
    - target: {fileID: 8179726549344643584, guid: a87d386506e5c6a4991cf199e33c8dad,
        type: 3}
      propertyPath: m_AnchorMax.y
      value: 1
      objectReference: {fileID: 0}
    - target: {fileID: 8179726549344643584, guid: a87d386506e5c6a4991cf199e33c8dad,
        type: 3}
      propertyPath: m_AnchoredPosition.x
      value: 0.035
      objectReference: {fileID: 0}
    - target: {fileID: 8179726549344643584, guid: a87d386506e5c6a4991cf199e33c8dad,
        type: 3}
      propertyPath: m_AnchoredPosition.y
      value: -0.035
      objectReference: {fileID: 0}
    - target: {fileID: 8179726549344643584, guid: a87d386506e5c6a4991cf199e33c8dad,
        type: 3}
      propertyPath: m_SizeDelta.x
      value: 0.07
      objectReference: {fileID: 0}
    - target: {fileID: 8219984766256160908, guid: a87d386506e5c6a4991cf199e33c8dad,
        type: 3}
      propertyPath: m_text
      value: 
      objectReference: {fileID: 0}
    - target: {fileID: 8311223473169726451, guid: a87d386506e5c6a4991cf199e33c8dad,
        type: 3}
      propertyPath: m_AnchorMin.y
      value: 1
      objectReference: {fileID: 0}
    - target: {fileID: 8311223473169726451, guid: a87d386506e5c6a4991cf199e33c8dad,
        type: 3}
      propertyPath: m_AnchorMax.y
      value: 1
      objectReference: {fileID: 0}
    - target: {fileID: 8311223473169726451, guid: a87d386506e5c6a4991cf199e33c8dad,
        type: 3}
      propertyPath: m_AnchoredPosition.x
      value: 0.035
      objectReference: {fileID: 0}
    - target: {fileID: 8311223473169726451, guid: a87d386506e5c6a4991cf199e33c8dad,
        type: 3}
      propertyPath: m_AnchoredPosition.y
      value: -0.32299998
      objectReference: {fileID: 0}
    - target: {fileID: 8311223473169726451, guid: a87d386506e5c6a4991cf199e33c8dad,
        type: 3}
      propertyPath: m_SizeDelta.x
      value: 0.07
      objectReference: {fileID: 0}
    - target: {fileID: 8676279555004898175, guid: a87d386506e5c6a4991cf199e33c8dad,
        type: 3}
      propertyPath: m_AnchorMin.y
      value: 0
      objectReference: {fileID: 0}
    - target: {fileID: 8676279555004898175, guid: a87d386506e5c6a4991cf199e33c8dad,
        type: 3}
      propertyPath: m_AnchorMax.y
      value: 0
      objectReference: {fileID: 0}
    - target: {fileID: 8676279555004898175, guid: a87d386506e5c6a4991cf199e33c8dad,
        type: 3}
      propertyPath: m_AnchoredPosition.x
      value: 0
      objectReference: {fileID: 0}
    - target: {fileID: 8676279555004898175, guid: a87d386506e5c6a4991cf199e33c8dad,
        type: 3}
      propertyPath: m_AnchoredPosition.y
      value: 0
      objectReference: {fileID: 0}
    - target: {fileID: 8676279555004898175, guid: a87d386506e5c6a4991cf199e33c8dad,
        type: 3}
      propertyPath: m_SizeDelta.x
      value: 0
      objectReference: {fileID: 0}
    - target: {fileID: 8676279555004898175, guid: a87d386506e5c6a4991cf199e33c8dad,
        type: 3}
      propertyPath: m_SizeDelta.y
      value: 0
      objectReference: {fileID: 0}
    - target: {fileID: 8687218212370246312, guid: a87d386506e5c6a4991cf199e33c8dad,
        type: 3}
      propertyPath: m_LocalPosition.x
      value: 0
      objectReference: {fileID: 0}
    - target: {fileID: 8687218212370246312, guid: a87d386506e5c6a4991cf199e33c8dad,
        type: 3}
      propertyPath: m_LocalPosition.y
      value: 0
      objectReference: {fileID: 0}
    - target: {fileID: 8687218212370246312, guid: a87d386506e5c6a4991cf199e33c8dad,
        type: 3}
      propertyPath: m_LocalPosition.z
      value: 0
      objectReference: {fileID: 0}
    - target: {fileID: 8687218212370246312, guid: a87d386506e5c6a4991cf199e33c8dad,
        type: 3}
      propertyPath: m_LocalRotation.x
      value: 0
      objectReference: {fileID: 0}
    - target: {fileID: 8687218212370246312, guid: a87d386506e5c6a4991cf199e33c8dad,
        type: 3}
      propertyPath: m_LocalRotation.y
      value: 0
      objectReference: {fileID: 0}
    - target: {fileID: 8687218212370246312, guid: a87d386506e5c6a4991cf199e33c8dad,
        type: 3}
      propertyPath: m_LocalRotation.z
      value: 0
      objectReference: {fileID: 0}
    - target: {fileID: 8687218212370246312, guid: a87d386506e5c6a4991cf199e33c8dad,
        type: 3}
      propertyPath: m_LocalRotation.w
      value: 1
      objectReference: {fileID: 0}
    - target: {fileID: 8687218212370246312, guid: a87d386506e5c6a4991cf199e33c8dad,
        type: 3}
      propertyPath: m_RootOrder
      value: 4
      objectReference: {fileID: 0}
    - target: {fileID: 8687218212370246312, guid: a87d386506e5c6a4991cf199e33c8dad,
        type: 3}
      propertyPath: m_LocalEulerAnglesHint.x
      value: 0
      objectReference: {fileID: 0}
    - target: {fileID: 8687218212370246312, guid: a87d386506e5c6a4991cf199e33c8dad,
        type: 3}
      propertyPath: m_LocalEulerAnglesHint.y
      value: 0
      objectReference: {fileID: 0}
    - target: {fileID: 8687218212370246312, guid: a87d386506e5c6a4991cf199e33c8dad,
        type: 3}
      propertyPath: m_LocalEulerAnglesHint.z
      value: 0
      objectReference: {fileID: 0}
    - target: {fileID: 8687218212370246319, guid: a87d386506e5c6a4991cf199e33c8dad,
        type: 3}
      propertyPath: m_Name
      value: Smartphone UI
      objectReference: {fileID: 0}
    - target: {fileID: 8962260383730583092, guid: a87d386506e5c6a4991cf199e33c8dad,
        type: 3}
      propertyPath: m_AnchorMin.y
      value: 0
      objectReference: {fileID: 0}
    - target: {fileID: 8962260383730583092, guid: a87d386506e5c6a4991cf199e33c8dad,
        type: 3}
      propertyPath: m_AnchorMax.y
      value: 0
      objectReference: {fileID: 0}
    - target: {fileID: 8962260383730583092, guid: a87d386506e5c6a4991cf199e33c8dad,
        type: 3}
      propertyPath: m_AnchoredPosition.x
      value: 0
      objectReference: {fileID: 0}
    - target: {fileID: 8962260383730583092, guid: a87d386506e5c6a4991cf199e33c8dad,
        type: 3}
      propertyPath: m_AnchoredPosition.y
      value: 0
      objectReference: {fileID: 0}
    - target: {fileID: 8962260383730583092, guid: a87d386506e5c6a4991cf199e33c8dad,
        type: 3}
      propertyPath: m_SizeDelta.x
      value: 0
      objectReference: {fileID: 0}
    - target: {fileID: 8962260383730583092, guid: a87d386506e5c6a4991cf199e33c8dad,
        type: 3}
      propertyPath: m_SizeDelta.y
      value: 0
      objectReference: {fileID: 0}
    - target: {fileID: 8965874191866565292, guid: a87d386506e5c6a4991cf199e33c8dad,
        type: 3}
      propertyPath: m_AnchorMin.y
      value: 0
      objectReference: {fileID: 0}
    - target: {fileID: 8965874191866565292, guid: a87d386506e5c6a4991cf199e33c8dad,
        type: 3}
      propertyPath: m_AnchorMax.y
      value: 0
      objectReference: {fileID: 0}
    - target: {fileID: 8965874191866565292, guid: a87d386506e5c6a4991cf199e33c8dad,
        type: 3}
      propertyPath: m_AnchoredPosition.x
      value: 0
      objectReference: {fileID: 0}
    - target: {fileID: 8965874191866565292, guid: a87d386506e5c6a4991cf199e33c8dad,
        type: 3}
      propertyPath: m_AnchoredPosition.y
      value: 0
      objectReference: {fileID: 0}
    - target: {fileID: 8965874191866565292, guid: a87d386506e5c6a4991cf199e33c8dad,
        type: 3}
      propertyPath: m_SizeDelta.x
      value: 0
      objectReference: {fileID: 0}
    - target: {fileID: 8965874191866565292, guid: a87d386506e5c6a4991cf199e33c8dad,
        type: 3}
      propertyPath: m_SizeDelta.y
      value: 0
      objectReference: {fileID: 0}
    m_RemovedComponents: []
  m_SourcePrefab: {fileID: 100100000, guid: a87d386506e5c6a4991cf199e33c8dad, type: 3}
--- !u!114 &40061141 stripped
MonoBehaviour:
  m_CorrespondingSourceObject: {fileID: 8687218212370246313, guid: a87d386506e5c6a4991cf199e33c8dad,
    type: 3}
  m_PrefabInstance: {fileID: 8687218212338836092}
  m_PrefabAsset: {fileID: 0}
  m_GameObject: {fileID: 0}
  m_Enabled: 1
  m_EditorHideFlags: 0
  m_Script: {fileID: 11500000, guid: f50e73f78e0fce749a0f96cd55f0450a, type: 3}
  m_Name: 
  m_EditorClassIdentifier: 
